[
  {
    "Name": "Kitchen cleaning service",
    "Description": "The kitchen is a god damn mess again!",
    "Actions": "#WARN\nYou must draw another event card\n#BAD\nIf no *cleaners*:  SYN-2 and {{BLAME}} all {{MESSY}}\n",
    "Is Major Event": false,
    "Printer card": false,
    "Good Bad": 0,
    "Repeat": 6,
    "SYN Loss": -2,
    "SYN Gain": 0,
    "Blame Common": false,
    "Blame Alluring": false,
    "Blame Impulsive": false,
    "Blame Messy": true,
    "Deprecated": false
  },
  {
    "Name": "Quirk Check",
    "Description": "Let's see how the employees are getting along.  ",
    "Actions": "#WARN\nYou must draw another event card\n#NEUTRAL\n1: Roll the {{D20}} dice once.\n2: For _each_ {{EMEE}} (any order), place a touch token then resolve all {{REPEAT}}{{D20}}{{ADJACENT}}{{BESIDE}}.\n3: Once complete, clear all {{EMEE}} touch tokens.",
    "Is Major Event": false,
    "Printer card": false,
    "Good Bad": 0,
    "Repeat": 8,
    "SYN Loss": 0,
    "SYN Gain": 0,
    "Blame Common": false,
    "Blame Alluring": false,
    "Blame Impulsive": false,
    "Blame Messy": false,
    "Deprecated": false
  },
  {
    "Name": "Death and Meetings, right?",
    "Description": "Meetings keep going wayyyyyyyyyyyy over time.\n  Like wayyyyyyyyyyyyyyyyyyyyyyyyyyyy...",
    "Actions": "#BAD\nAll *founders*: lose one {{TASK}}\n",
    "Is Major Event": false,
    "Printer card": false,
    "Good Bad": 0,
    "Repeat": 0,
    "SYN Loss": 0,
    "SYN Gain": 0,
    "Blame Common": false,
    "Blame Alluring": false,
    "Blame Impulsive": false,
    "Blame Messy": false,
    "Deprecated": false
  },
  {
    "Name": "Mysterious vacation season",
    "Description": "For some reason, a whole bunch of your employees all go on vacation at the same time.  They all say the same thing curious thing: \"I'm going to be out of cell service.\"  And then come back with dusty cars.  Strange.",
    "Actions": "#BAD\nAll {{EMEE}} with 2+ {{ART}}: lose one {{TASK}}\n",
    "Is Major Event": false,
    "Printer card": false,
    "Good Bad": 0,
    "Repeat": 0,
    "SYN Loss": 0,
    "SYN Gain": 0,
    "Blame Common": false,
    "Blame Alluring": false,
    "Blame Impulsive": false,
    "Blame Messy": false,
    "Deprecated": false
  },
  {
    "Name": "It's flu season",
    "Description": "[Plug your nose and sound pathetic while reading this] \"Hey boss.  Sorry I won't be able to make it into work today, I've got that thing that's going around the office.\" \nA choice employee gets sick and spreads it.",
    "Actions": "#BAD\nChoose any {{EMEE}}: them and all {{ADJACENT}} lose one {{TASK}} \n",
    "Is Major Event": false,
    "Printer card": false,
    "Good Bad": 0,
    "Repeat": 0,
    "SYN Loss": 0,
    "SYN Gain": 0,
    "Blame Common": false,
    "Blame Alluring": false,
    "Blame Impulsive": false,
    "Blame Messy": false,
    "Deprecated": false
  },
  {
    "Name": "Staff member gets rowdy",
    "Description": "It would be a shame to work so hard on the keg stand and not show it off.  But keg stands are a pretty silppery slope.  This could either make the party or kill it, depending on the level of implusiveness.",
    "Actions": "#BAD\nIf any {{IMPULSIVE}}: SYN-1 and {{BLAME}} all {{IMPULSIVE}}\n#GOOD\nOtherwise: SYN+1",
    "Is Major Event": false,
    "Printer card": false,
    "Good Bad": 0,
    "Repeat": 0,
    "SYN Loss": -1,
    "SYN Gain": 1,
    "Blame Common": false,
    "Blame Alluring": false,
    "Blame Impulsive": true,
    "Blame Messy": false,
    "Deprecated": false
  },
  {
    "Name": "Donuts!!\n",
    "Description": "Someone brings donuts to the office.  It would be lovely if rather than a few employees eating them all, everyone got one.",
    "Actions": "#BAD\nIf 2+ {{IMPULSIVE}}: {{BLAME}} all {{IMPULSIVE}}\n#GOOD\nOtherwise: SYN+1",
    "Is Major Event": false,
    "Printer card": false,
    "Good Bad": 0,
    "Repeat": 0,
    "SYN Loss": 0,
    "SYN Gain": 1,
    "Blame Common": false,
    "Blame Alluring": false,
    "Blame Impulsive": true,
    "Blame Messy": false,
    "Deprecated": false
  },
  {
    "Name": "Where the pens at?",
    "Description": "A signature is needed and no pens can be found.  Who's job is this?  Oh yeah, it's HR's.",
    "Actions": "#BAD\nIf no HR: SYN-1\n",
    "Is Major Event": false,
    "Printer card": false,
    "Good Bad": 0,
    "Repeat": 0,
    "SYN Loss": -1,
    "SYN Gain": 0,
    "Blame Common": false,
    "Blame Alluring": false,
    "Blame Impulsive": false,
    "Blame Messy": false,
    "Deprecated": false
  },
  {
    "Name": "Health Insurance Racket",
    "Description": "It's time to re-up on your health plan with Phalse Security Inc., and they've doubled the cost of their policy. ",
    "Actions": "#CHOOSE\nA: 0k for SYN-4 \n#CHOOSE\nB: 10k for no change\n#CHOOSE\nC: 20k for SYN+2",
    "Is Major Event": true,
    "Printer card": false,
    "Good Bad": 0,
    "Repeat": 0,
    "SYN Loss": -4,
    "SYN Gain": 2,
    "Blame Common": false,
    "Blame Alluring": false,
    "Blame Impulsive": false,
    "Blame Messy": false,
    "Deprecated": false
  },
  {
    "Name": "Office Fire",
    "Description": "First the huge error in accounting, and now this!?  Luckily you have good insurance, but you still lost your prized red stapler.",
    "Actions": "#BAD\nChoose any {{IMPULSIVE}}: remove them from play\nAll *workers*: lose one {{TASK}}\n",
    "Is Major Event": true,
    "Printer card": false,
    "Good Bad": 0,
    "Repeat": 0,
    "SYN Loss": 0,
    "SYN Gain": 0,
    "Blame Common": false,
    "Blame Alluring": false,
    "Blame Impulsive": true,
    "Blame Messy": false,
    "Deprecated": false
  },
  {
    "Name": "Major Investor",
    "Description": "Bill Jobs is interested in your company, and want's to invest.  He's mostly looking for size of company and happiness.",
    "Actions": "#GOOD\nIf 6+ {{EMEE}} and 15+ SYN: +80k",
    "Is Major Event": true,
    "Printer card": false,
    "Good Bad": 0,
    "Repeat": 0,
    "SYN Loss": 0,
    "SYN Gain": 0,
    "Blame Common": false,
    "Blame Alluring": false,
    "Blame Impulsive": false,
    "Blame Messy": false,
    "Deprecated": false
  },
  {
    "Name": "Printer doesn't work",
    "Description": "Nobody knows why the printer is not working, but nobody really knows why the things ever choose to work in the first place.",
    "Actions": "#WARN\nYou must draw another event card\n#BAD\nChoose any 2 {{EMEE}}: lose one {{TASK}}",
    "Is Major Event": false,
    "Printer card": true,
    "Good Bad": 0,
    "Repeat": 0,
    "SYN Loss": -1,
    "SYN Gain": 1,
    "Blame Common": false,
    "Blame Alluring": false,
    "Blame Impulsive": false,
    "Blame Messy": false,
    "Deprecated": false
  },
  {
    "Name": "Printer is out of ink",
    "Description": "Due to printer problems, we were unable to print a few of the cards.",
    "Actions": "#WARN\nYou must draw another event card\n#BAD\nUnavoidable: discard the top card from every deck",
    "Is Major Event": false,
    "Printer card": true,
    "Good Bad": 0,
    "Repeat": 0,
    "SYN Loss": 0,
    "SYN Gain": 0,
    "Blame Common": false,
    "Blame Alluring": false,
    "Blame Impulsive": false,
    "Blame Messy": false,
    "Deprecated": false
  },
  {
    "Name": "Printer is jammed",
    "Description": "The wonderous printer is jammed... again, and on employee review day, nonetheless.  The fact that with all the technological advancements we've made, these things still don't work really sets everyone off.",
    "Actions": "#WARN\nYou must draw another event card\n#BAD\nUnavoidable: subtract *quarter-count* {{EMEE}} from SYN",
    "Is Major Event": true,
    "Printer card": true,
    "Good Bad": 0,
    "Repeat": 0,
    "SYN Loss": -5,
    "SYN Gain": 0,
    "Blame Common": false,
    "Blame Alluring": false,
    "Blame Impulsive": false,
    "Blame Messy": false,
    "Deprecated": false
  },
  {
    "Name": "Printer is out of paper",
    "Description": "Going paperless was a good decision, but someone took the idea a bit too far.  There seems to be no paper anywhere in the entire office.  Perhaps HR knows where it is.",
    "Actions": "#WARN\nYou must draw another event card\n#BAD\nIf no HR: take two {{TASK}} from any {{EMEE}}\n#GOOD\nOtherwise: HR gets an extra {{TASK}}",
    "Is Major Event": 0,
    "Printer card": true,
    "Good Bad": 0,
    "Repeat": 0,
    "SYN Loss": 0,
    "SYN Gain": 0,
    "Blame Common": false,
    "Blame Alluring": false,
    "Blame Impulsive": false,
    "Blame Messy": false,
    "Deprecated": false
  },
  {
    "Name": "Printer won't print double-sided",
    "Description": "One of your investors is asking for a coprehensive tower of papers, and the printer seems adimant on doubling the page count.  There is a printing store across town...",
    "Actions": "#WARN\nYou must draw another event card\n#CHOOSE\nA: Take one {{TASK}} from any {{EMEE}}\n#CHOOSE\nB: Lose 10k",
    "Is Major Event": 0,
    "Printer card": true,
    "Good Bad": 0,
    "Repeat": 0,
    "SYN Loss": 0,
    "SYN Gain": 0,
    "Blame Common": false,
    "Blame Alluring": false,
    "Blame Impulsive": false,
    "Blame Messy": false,
    "Deprecated": false
  },
  {
    "Name": "Printer is unplugged",
    "Description": "No one can print.  No one knows why.  Eventually, someone notices the printer is unplugged.  Everyone feels stupid, but collaborate on blaming someone other than themselves. ",
    "Actions": "#WARN\nYou must draw another event card\n#BAD\nChoose any {{EMEE}} without {{COMMON}}: add one {{BLAME}}",
    "Is Major Event": 0,
    "Printer card": true,
    "Good Bad": 0,
    "Repeat": 0,
    "SYN Loss": 0,
    "SYN Gain": 0,
    "Blame Common": true,
    "Blame Alluring": false,
    "Blame Impulsive": false,
    "Blame Messy": false,
    "Deprecated": false
  },
  {
    "Name": "Printer is asleep",
    "Description": "Do asleep printers dream of electric sheep?  While troubleshooting the problem a few employees end up having a really productive conversation.",
    "Actions": "#WARN\nYou must draw another event card\n#GOOD\nUnavoidable: SYN+1",
    "Is Major Event": 0,
    "Printer card": true,
    "Good Bad": 0,
    "Repeat": 0,
    "SYN Loss": 0,
    "SYN Gain": 1,
    "Blame Common": false,
    "Blame Alluring": false,
    "Blame Impulsive": false,
    "Blame Messy": false,
    "Deprecated": false
  },
  {
    "Name": "Printer won't connect",
    "Description": "Nobody knows when consumers all came together to collectively declare their distaste for any form of direct connection.. but by all accounts, it never really happened.",
    "Actions": "#WARN\nYou must draw another event card\n#GOOD\nIf any {{EMEE}} have 3{{LOG}}: no effect\n#BAD\nOtherwise: Take 1 {{TASK}} from any *founder*",
    "Is Major Event": 0,
    "Printer card": true,
    "Good Bad": 0,
    "Repeat": 0,
    "SYN Loss": 0,
    "SYN Gain": 0,
    "Blame Common": false,
    "Blame Alluring": false,
    "Blame Impulsive": false,
    "Blame Messy": false,
    "Deprecated": false
  },
  {
    "Name": "Printer:  PC Load Letter",
    "Description": "\"PC Load Letter?  What the f*&^ does that mean?\" \nYou are faced with two options, one involves getting a new printer and taking a few bats to the old.  The other involves a sloppy fix.",
    "Actions": "#WARN\nYou must draw another event card\n#CHOOSE\nA: 6k for SYN+1\n#CHOOSE\nB: 0k for SYN-1",
    "Is Major Event": 0,
    "Printer card": true,
    "Good Bad": 0,
    "Repeat": 0,
    "SYN Loss": -1,
    "SYN Gain": 1,
    "Blame Common": false,
    "Blame Alluring": false,
    "Blame Impulsive": false,
    "Blame Messy": false,
    "Deprecated": false
  },
  {
    "Name": "Do we have a fax machine?",
    "Description": "A client needs some paperwork \"faxed\" immediately, but no one knows where the fax machine is.  As it turns out, your printer has a fax mode, and everything turns out great.",
    "Actions": "#GOOD\nUnavoidable: SYN+1",
    "Is Major Event": false,
    "Printer card": false,
    "Good Bad": 0,
    "Repeat": 0,
    "SYN Loss": 0,
    "SYN Gain": 1,
    "Blame Common": false,
    "Blame Alluring": false,
    "Blame Impulsive": false,
    "Blame Messy": false,
    "Deprecated": false
  },
  {
    "Name": "Conference Room Wars",
    "Description": "The conference room keeps getting overbooked.  Unfortunately, it's not really anyone's job to oversee it, so it is just going to keep happening.\n",
    "Actions": "#BAD\nUnavoidable: SYN-2",
    "Is Major Event": false,
    "Printer card": false,
    "Good Bad": 0,
    "Repeat": 0,
    "SYN Loss": -2,
    "SYN Gain": 0,
    "Blame Common": false,
    "Blame Alluring": false,
    "Blame Impulsive": false,
    "Blame Messy": false,
    "Deprecated": false
  },
  {
    "Name": "You got pwned",
    "Description": "Someone was watching russian youtube on their work laptop and let a big fat trojan in.  You're going to have to get some malware protection, and give that employee a few stink eyes.",
    "Actions": "#BAD\nChoose any {{EMEE}} with {{IMPULSIVE}}: add one {{BLAME}} \nUnavoidable: -8k\n",
    "Is Major Event": true,
    "Printer card": false,
    "Good Bad": 0,
    "Repeat": 0,
    "SYN Loss": 0,
    "SYN Gain": 0,
    "Blame Common": false,
    "Blame Alluring": false,
    "Blame Impulsive": true,
    "Blame Messy": false,
    "Deprecated": false
  },
  {
    "Name": "Revenge is a dish best served... hot?",
    "Description": "Firing people always sucks, especially if it's someone who believes in revenge.  One of the employees you've passed up on didn't take the news well.",
    "Actions": "#BAD\nChoose random discarded {{EMEE}}\nFor _each_ {{LOGIC}} they have: -5k",
    "Is Major Event": false,
    "Printer card": false,
    "Good Bad": 0,
    "Repeat": 0,
    "SYN Loss": 0,
    "SYN Gain": 0,
    "Blame Common": false,
    "Blame Alluring": false,
    "Blame Impulsive": false,
    "Blame Messy": false,
    "Deprecated": false
  },
  {
    "Name": "Who is IT anyway?",
    "Description": "An employee's laptop has stopped working and they can't get it to restart.  \nHopefully someone can fix it, otherwise you're going to have to buy a new one.",
    "Actions": "#BAD\nIf no {{EMEE}} with 3 {{LOG}}: -5k",
    "Is Major Event": false,
    "Printer card": false,
    "Good Bad": 0,
    "Repeat": 0,
    "SYN Loss": 0,
    "SYN Gain": 0,
    "Blame Common": false,
    "Blame Alluring": false,
    "Blame Impulsive": false,
    "Blame Messy": false,
    "Deprecated": false
  },
  {
    "Name": "Surprise blue shell",
    "Description": "Out of nowhere, a blue turtle-like shell shows up.  As a group, decide which founder has been the most vocal/dominant.  That's the founder who decides to touch the shell, and is immediately struck with bad luck.  If you're playing alone, you get an extra turn.  If no decision can be made, everyone loses all but one task.",
    "Actions": "#BAD\nChoose the most vocal *founder*: lose all {{TASK}} \n",
    "Is Major Event": false,
    "Printer card": false,
    "Good Bad": 0,
    "Repeat": 0,
    "SYN Loss": 0,
    "SYN Gain": 0,
    "Blame Common": false,
    "Blame Alluring": false,
    "Blame Impulsive": false,
    "Blame Messy": false,
    "Deprecated": false
  },
  {
    "Name": "Discompassionate Management",
    "Description": "Any lack of patience in upper management can cascade into masssive problems.  Employees not wanting to say the things they think, yes-maning, stress and stagnation.  Check your patience.",
    "Actions": "#BAD\nFor _each_ *founder* with no {{PAT}}: SYN-3\n",
    "Is Major Event": true,
    "Printer card": false,
    "Good Bad": 0,
    "Repeat": 0,
    "SYN Loss": -12,
    "SYN Gain": 0,
    "Blame Common": false,
    "Blame Alluring": false,
    "Blame Impulsive": false,
    "Blame Messy": false,
    "Deprecated": false
  },
  {
    "Name": "Sexual Harrassment",
    "Description": "HEY THERE SUGAR TITS!",
    "Actions": "#BAD\nFor _each_ {{ALLURING}} or {{IMPULSIVE}}: SYN-1 \nUnavoidable: {{BLAME}} all {{IMPULSIVE}}",
    "Is Major Event": true,
    "Printer card": false,
    "Good Bad": 0,
    "Repeat": 0,
    "SYN Loss": -3,
    "SYN Gain": 0,
    "Blame Common": false,
    "Blame Alluring": true,
    "Blame Impulsive": true,
    "Blame Messy": false,
    "Deprecated": false
  },
  {
    "Name": "Equal rights concerns",
    "Description": "You're under the spotlight for discrimination.  If you have more than 5 employees and less than four banner colors (including co-founders), take SYN-1 for each employee.",
    "Actions": 0,
    "Is Major Event": true,
    "Printer card": false,
    "Good Bad": 0,
    "Repeat": 0,
    "SYN Loss": -5,
    "SYN Gain": 0,
    "Blame Common": false,
    "Blame Alluring": false,
    "Blame Impulsive": false,
    "Blame Messy": false,
    "Deprecated": false
  },
  {
    "Name": "An Affair to Remember",
    "Description": "Rumors are amok that a few of your employees have been getting down to some unapproved business.  Add a blame token to all employees with the {{ALLURING}} quality.",
    "Actions": "#BAD\nUnavoidable: {{BLAME}} all {{ALLURING}}",
    "Is Major Event": false,
    "Printer card": false,
    "Good Bad": 0,
    "Repeat": 0,
    "SYN Loss": 0,
    "SYN Gain": 0,
    "Blame Common": false,
    "Blame Alluring": true,
    "Blame Impulsive": false,
    "Blame Messy": false,
    "Deprecated": false
  },
  {
    "Name": "All Staff Meeting",
    "Description": "All staff meeting day!  It might be a little boring, but it's the only time everyone really sees each other as humans and gets the scoop on company business.  \nYou may choose to follow it up with a happy hour.",
    "Actions": "#GOOD\nOptional: trade 2k for SYN+1 once\n",
    "Is Major Event": false,
    "Printer card": false,
    "Good Bad": 0,
    "Repeat": 0,
    "SYN Loss": 0,
    "SYN Gain": 1,
    "Blame Common": false,
    "Blame Alluring": false,
    "Blame Impulsive": false,
    "Blame Messy": false,
    "Deprecated": false
  },
  {
    "Name": "Holiday Party",
    "Description": "Who doesn't love sitting under the mistle-toe, carving hearts into pumpkins, and hiding them from the decending disco ball?\n",
    "Actions": "#GOOD\nUnavoidable: SYN+3 ",
    "Is Major Event": true,
    "Printer card": false,
    "Good Bad": 0,
    "Repeat": 0,
    "SYN Loss": 0,
    "SYN Gain": 3,
    "Blame Common": false,
    "Blame Alluring": false,
    "Blame Impulsive": false,
    "Blame Messy": false,
    "Deprecated": false
  },
  {
    "Name": "Staff wants to unionize",
    "Description": "A competitor's staff unionized and got some great new perks, so there are whispers in the office about starting a union.  \nIf you have any employees with PATIENCE 2 or LOG 2, the whispers subside.  If not, choose to pay 2K for a spontaneous outing and +2 SYN.",
    "Actions": 0,
    "Is Major Event": true,
    "Printer card": false,
    "Good Bad": 0,
    "Repeat": 0,
    "SYN Loss": 0,
    "SYN Gain": 2,
    "Blame Common": false,
    "Blame Alluring": false,
    "Blame Impulsive": false,
    "Blame Messy": false,
    "Deprecated": false
  },
  {
    "Name": "Please don't do that",
    "Description": "A lot of employees are uncomfortable with the actions being made by one employee, but don't want to bring it up with management.  Depending on the patience of your employees, they might decide to have a civilized conversation, or  just passive-aggresively \"ignore\" it.",
    "Actions": "#GOOD\nIf any {{EMEE}} has 3 {{PAT}}: SYN+1\n\n#BAD\nOtherwise: SYN-2",
    "Is Major Event": false,
    "Printer card": false,
    "Good Bad": 0,
    "Repeat": 0,
    "SYN Loss": -2,
    "SYN Gain": 1,
    "Blame Common": false,
    "Blame Alluring": false,
    "Blame Impulsive": false,
    "Blame Messy": false,
    "Deprecated": false
  },
  {
    "Name": "New Dress Code",
    "Description": "It's hard to tell if it was the revealing yoga pants or excessive pit stains, but one thing is clear: it's time for a dress code. ",
    "Actions": "#BAD\nUnavoidable: SYN-2\nFor _each_  {{COMMON}}: blame any without {{COMMON}}  ",
    "Is Major Event": false,
    "Printer card": false,
    "Good Bad": 0,
    "Repeat": 0,
    "SYN Loss": -2,
    "SYN Gain": 0,
    "Blame Common": true,
    "Blame Alluring": false,
    "Blame Impulsive": false,
    "Blame Messy": false,
    "Deprecated": false
  },
  {
    "Name": "Dial-up flashbacks",
    "Description": "The internet has been really spotty lately.  What year is it!?   If you have any logical geniuses, they reset the modem and it's no big deal.  But without them, it becomes a constant issue.",
    "Actions": "#BAD\nIf no {{EMEE}} with 3 {{LOG}}: SYN-2",
    "Is Major Event": false,
    "Printer card": false,
    "Good Bad": 0,
    "Repeat": 0,
    "SYN Loss": -2,
    "SYN Gain": 0,
    "Blame Common": false,
    "Blame Alluring": false,
    "Blame Impulsive": false,
    "Blame Messy": false,
    "Deprecated": false
  },
  {
    "Name": "Storm causes electricity outage",
    "Description": "A rogue bolt of lightning put the entire block out of power.  Fortunately, there was a lot of much needed meetings and paperwork that could be done by candlelight.  The whole experience turned out rather relaxing.",
    "Actions": "#GOOD\nUnavoidable: SYN+1",
    "Is Major Event": false,
    "Printer card": false,
    "Good Bad": 0,
    "Repeat": 0,
    "SYN Loss": 0,
    "SYN Gain": 1,
    "Blame Common": false,
    "Blame Alluring": false,
    "Blame Impulsive": false,
    "Blame Messy": false,
    "Deprecated": false
  },
  {
    "Name": "Unavoidable road work",
    "Description": "There's some serious m*&%er f*%$in road work right in the middle of everyones commute to the office and it's hitting **everyone**.",
    "Actions": "#BAD\nUnavoidable: SYN loses *half-count* {{EMEE}} ",
    "Is Major Event": true,
    "Printer card": false,
    "Good Bad": 0,
    "Repeat": 0,
    "SYN Loss": -6,
    "SYN Gain": 0,
    "Blame Common": false,
    "Blame Alluring": false,
    "Blame Impulsive": false,
    "Blame Messy": false,
    "Deprecated": false
  },
  {
    "Name": "Puppy day!",
    "Description": "Puppy day!  There's an amazing local service where you can have a bunch of puppies delivered to the office for a day.  It even better with dog or wolf onesies.",
    "Actions": "#GOOD\nOptional: trade 1k for SYN+1\nIf any {{EMEE}} have canine *pjs*: SYN+3 instead",
    "Is Major Event": false,
    "Printer card": false,
    "Good Bad": 0,
    "Repeat": 0,
    "SYN Loss": 0,
    "SYN Gain": 3,
    "Blame Common": false,
    "Blame Alluring": false,
    "Blame Impulsive": false,
    "Blame Messy": false,
    "Deprecated": false
  },
  {
    "Name": "Out of water",
    "Description": 0,
    "Actions": 0,
    "Is Major Event": false,
    "Printer card": false,
    "Good Bad": 0,
    "Repeat": 0,
    "SYN Loss": 0,
    "SYN Gain": 0,
    "Blame Common": false,
    "Blame Alluring": false,
    "Blame Impulsive": false,
    "Blame Messy": false,
    "Deprecated": false
  },
  {
    "Name": "It's Election season",
    "Description": "Everyone loves chatting about politics in the workplace, right? ",
    "Actions": "#BAD\nFor _each_ {{IMPULSIVE}}: SYN-1\nChoose 2 {{IMPULSIVE}}: add one {{BLAME}}",
    "Is Major Event": false,
    "Printer card": false,
    "Good Bad": 0,
    "Repeat": 0,
    "SYN Loss": -2,
    "SYN Gain": 0,
    "Blame Common": false,
    "Blame Alluring": false,
    "Blame Impulsive": true,
    "Blame Messy": false,
    "Deprecated": false
  },
  {
    "Name": "It's National Dressup Day!",
    "Description": "Everyone gets to wear their favorite onesie for a day!",
    "Actions": "#GOOD\nUnavoidable: SYN+2",
    "Is Major Event": false,
    "Printer card": false,
    "Good Bad": 0,
    "Repeat": 0,
    "SYN Loss": 0,
    "SYN Gain": 3,
    "Blame Common": false,
    "Blame Alluring": false,
    "Blame Impulsive": false,
    "Blame Messy": false,
    "Deprecated": false
  },
  {
    "Name": "Lunch Thief",
    "Description": "[Raindrops and NY Sax] This office never sleeps. The street lights shimmering off puddles should make me happy, but the only thing I can think about is the note they left on the fridge: \"Nyeahahaha!  You'll never catch me! - The Hungry Pirate.\"  I'll catch you lunch theif, or I'll die trying.\n",
    "Actions": "#BAD\nUnavoidable: SYN-2 and {{BLAME}} any without {{COMMON}}",
    "Is Major Event": false,
    "Printer card": false,
    "Good Bad": 0,
    "Repeat": 0,
    "SYN Loss": -2,
    "SYN Gain": 0,
    "Blame Common": true,
    "Blame Alluring": false,
    "Blame Impulsive": false,
    "Blame Messy": false,
    "Deprecated": false
  },
  {
    "Name": "New rules for decorating desks",
    "Description": "As funny as the fake-poop-on-desk bit is, it's really messing up all your candid office shots.  It seems you'll have to add some stipulations to what can and can't be put on a desk.",
    "Actions": "#BAD\nFor _each_ {{COMMON}}: {{BLAME}} any without {{COMMON}}",
    "Is Major Event": false,
    "Printer card": false,
    "Good Bad": 0,
    "Repeat": 0,
    "SYN Loss": 0,
    "SYN Gain": 0,
    "Blame Common": true,
    "Blame Alluring": false,
    "Blame Impulsive": false,
    "Blame Messy": false,
    "Deprecated": false
  },
  {
    "Name": "Ants!",
    "Description": "Scrambling along the walls, congregating in the halls, and climbing up employees pants: this ant situation is out of control. ",
    "Actions": "#BAD\nChoose any {{MESSY}}: Add one {{BLAME}}\nUnavoidable: SYN-1",
    "Is Major Event": false,
    "Printer card": false,
    "Good Bad": 0,
    "Repeat": 0,
    "SYN Loss": -1,
    "SYN Gain": 0,
    "Blame Common": false,
    "Blame Alluring": false,
    "Blame Impulsive": false,
    "Blame Messy": true,
    "Deprecated": false
  },
  {
    "Name": "Key card app won't work",
    "Description": "Wasn't all this technology supposed to make lives easier?  Your office's built in key card solution is really more of a problem.  People are getting locked out during breaks and sometimes even when no one is around to help.",
    "Actions": "#BAD\nUnavoidable: SYN-1",
    "Is Major Event": false,
    "Printer card": false,
    "Good Bad": 0,
    "Repeat": 0,
    "SYN Loss": -1,
    "SYN Gain": 0,
    "Blame Common": false,
    "Blame Alluring": false,
    "Blame Impulsive": false,
    "Blame Messy": false,
    "Deprecated": false
  },
  {
    "Name": "Design flaw",
    "Description": "There was a major design flaw in one of your recent projects.  Hopefully you haven't begun implementation yet.",
    "Actions": "#BAD\nProject with the most {{TASK}}: remove all {{TASK}}",
    "Is Major Event": false,
    "Printer card": false,
    "Good Bad": 0,
    "Repeat": 0,
    "SYN Loss": 0,
    "SYN Gain": 0,
    "Blame Common": false,
    "Blame Alluring": false,
    "Blame Impulsive": false,
    "Blame Messy": false,
    "Deprecated": false
  },
  {
    "Name": "Office Tour",
    "Description": 0,
    "Actions": 0,
    "Is Major Event": false,
    "Printer card": false,
    "Good Bad": 0,
    "Repeat": 0,
    "SYN Loss": 0,
    "SYN Gain": 0,
    "Blame Common": false,
    "Blame Alluring": false,
    "Blame Impulsive": false,
    "Blame Messy": false,
    "Deprecated": false
  },
  {
    "Name": "Maternity/Paternity Leave",
    "Description": "The bun in the oven has come out and cooing baby sounds & sights fill the office periodically for the first few months.",
    "Actions": "#BAD\nChoose any {{EMEE}}: take two {{TASK}}\n#GOOD\nUnavoidable: SYN+2",
    "Is Major Event": false,
    "Printer card": false,
    "Good Bad": 0,
    "Repeat": 0,
    "SYN Loss": 0,
    "SYN Gain": 2,
    "Blame Common": false,
    "Blame Alluring": false,
    "Blame Impulsive": false,
    "Blame Messy": false,
    "Deprecated": false
  },
  {
    "Name": "Big Conference",
    "Description": "Everyone knows conferences are mostly partying on the company dime, but somehow they still end up being amazing networking opportunities. You may choose some employees to send to the big conference.",
    "Actions": "#GOOD\nChoose 0-6 {{EMEE}}: trade one {{TASK}} for SYN+1",
    "Is Major Event": true,
    "Printer card": false,
    "Good Bad": 0,
    "Repeat": 0,
    "SYN Loss": 0,
    "SYN Gain": 5,
    "Blame Common": false,
    "Blame Alluring": false,
    "Blame Impulsive": false,
    "Blame Messy": false,
    "Deprecated": false
  },
  {
    "Name": "Reply all fuckups",
    "Description": "D'oh!  That email reeeeallly wasn't meant for everyone.  In response, an informational packet goes out with instructions on how to set up the recall email option.",
    "Actions": "#BAD\nChoose any without {{COMMON}}: add one {{BLAME}}",
    "Is Major Event": false,
    "Printer card": false,
    "Good Bad": 0,
    "Repeat": 0,
    "SYN Loss": 0,
    "SYN Gain": 0,
    "Blame Common": true,
    "Blame Alluring": false,
    "Blame Impulsive": false,
    "Blame Messy": false,
    "Deprecated": false
  },
  {
    "Name": "TPS report",
    "Description": "People keep forgetting to put cover sheets on their tps reports... Did they see the memo?",
    "Actions": "#BAD\nUnavoidable: SYN-2",
    "Is Major Event": false,
    "Printer card": 0,
    "Good Bad": 0,
    "Repeat": 0,
    "SYN Loss": -2,
    "SYN Gain": 0,
    "Blame Common": false,
    "Blame Alluring": false,
    "Blame Impulsive": false,
    "Blame Messy": false,
    "Deprecated": false
  },
  {
    "Name": "A huge controversy",
    "Description": "We don't want to talk about it, we just want to move on.\n",
    "Actions": "#BAD\nFor each {{EMEE}} (max 8): SYN-1",
    "Is Major Event": true,
    "Printer card": 0,
    "Good Bad": 0,
    "Repeat": 0,
    "SYN Loss": -8,
    "SYN Gain": 0,
    "Blame Common": false,
    "Blame Alluring": false,
    "Blame Impulsive": false,
    "Blame Messy": false,
    "Deprecated": false
  },
  {
    "Name": "The state of communication",
    "Description": "Has your company gotten too big for personal connections amongst employees and management?  Depends on how patient the founders are vs the number of employees.",
    "Actions": "#NEUTRAL\nAdd all founder patience together and subtract *half-count* {{EMEE}}.  This is the SYN gained or lost.",
    "Is Major Event": true,
    "Printer card": 0,
    "Good Bad": 0,
    "Repeat": 0,
    "SYN Loss": -5,
    "SYN Gain": 5,
    "Blame Common": false,
    "Blame Alluring": false,
    "Blame Impulsive": false,
    "Blame Messy": false,
    "Deprecated": false
  },
  {
    "Name": "Effecient Meetings",
    "Description": "Sheperding cats along the flimsy timeline of an agenda is no simple task.  Whoever has done it best deserves a reward.",
    "Actions": "#GOOD\nChoose the most *agenda card* friendly *founder*: add two {{TASK}}",
    "Is Major Event": 0,
    "Printer card": 0,
    "Good Bad": 0,
    "Repeat": 0,
    "SYN Loss": 0,
    "SYN Gain": 0,
    "Blame Common": 0,
    "Blame Alluring": 0,
    "Blame Impulsive": 0,
    "Blame Messy": 0,
    "Deprecated": 0
  },
  {
    "Name": "We don't want the funk",
    "Description": "There's a strange funk in the restrooms.  Nobody knows if it's anyones fault, but that doesn't stop them from suspecting it.",
    "Actions": "#BAD\nChoose any {{IMPULSIVE}}: add one {{BLAME}}\nChoose any {{EMEE}} without {{COMMON}}: add one {{BLAME}}",
    "Is Major Event": 0,
    "Printer card": 0,
    "Good Bad": 0,
    "Repeat": 0,
    "SYN Loss": 0,
    "SYN Gain": 0,
    "Blame Common": true,
    "Blame Alluring": 0,
    "Blame Impulsive": 0,
    "Blame Messy": true,
    "Deprecated": 0
  },
  {
    "Name": 0,
    "Description": 0,
    "Actions": 0,
    "Is Major Event": 0,
    "Printer card": 0,
    "Good Bad": 0,
    "Repeat": 0,
    "SYN Loss": 0,
    "SYN Gain": 0,
    "Blame Common": true,
    "Blame Alluring": 0,
    "Blame Impulsive": true,
    "Blame Messy": false,
    "Deprecated": 0
  },
  {
    "Name": 0,
    "Description": 0,
    "Actions": 0,
    "Is Major Event": 0,
    "Printer card": 0,
    "Good Bad": 0,
    "Repeat": 0,
    "SYN Loss": 0,
    "SYN Gain": 0,
    "Blame Common": 0,
    "Blame Alluring": 0,
    "Blame Impulsive": true,
    "Blame Messy": 0,
    "Deprecated": 0
  },
  {
    "Name": 0,
    "Description": 0,
    "Actions": 0,
    "Is Major Event": 0,
    "Printer card": 0,
    "Good Bad": 0,
    "Repeat": 0,
    "SYN Loss": 0,
    "SYN Gain": 0,
    "Blame Common": true,
    "Blame Alluring": true,
    "Blame Impulsive": 0,
    "Blame Messy": 0,
    "Deprecated": 0
  },
  {
    "Name": 0,
    "Description": 0,
    "Actions": 0,
    "Is Major Event": 0,
    "Printer card": 0,
    "Good Bad": 0,
    "Repeat": 0,
    "SYN Loss": 0,
    "SYN Gain": 0,
    "Blame Common": 0,
    "Blame Alluring": true,
    "Blame Impulsive": 0,
    "Blame Messy": 0,
    "Deprecated": 0
  },
  {
    "Name": 0,
    "Description": 0,
    "Actions": 0,
    "Is Major Event": 0,
    "Printer card": 0,
    "Good Bad": 0,
    "Repeat": 0,
    "SYN Loss": 0,
    "SYN Gain": 0,
    "Blame Common": 0,
    "Blame Alluring": true,
    "Blame Impulsive": 0,
    "Blame Messy": 0,
    "Deprecated": 0
  },
  {
    "Name": 0,
    "Description": 0,
    "Actions": 0,
    "Is Major Event": 0,
    "Printer card": 0,
    "Good Bad": 0,
    "Repeat": 0,
    "SYN Loss": 0,
    "SYN Gain": 0,
    "Blame Common": 0,
    "Blame Alluring": true,
    "Blame Impulsive": 0,
    "Blame Messy": 0,
    "Deprecated": 0
  },
  {
    "Name": 0,
    "Description": 0,
    "Actions": 0,
    "Is Major Event": 0,
    "Printer card": 0,
    "Good Bad": 0,
    "Repeat": 0,
    "SYN Loss": 0,
    "SYN Gain": 0,
    "Blame Common": 0,
    "Blame Alluring": true,
    "Blame Impulsive": 0,
    "Blame Messy": 0,
    "Deprecated": 0
  },
  {
    "Name": 0,
    "Description": 0,
    "Actions": 0,
    "Is Major Event": 0,
    "Printer card": 0,
    "Good Bad": 0,
    "Repeat": 0,
    "SYN Loss": 0,
    "SYN Gain": 0,
    "Blame Common": 0,
    "Blame Alluring": true,
    "Blame Impulsive": 0,
    "Blame Messy": 0,
    "Deprecated": 0
  },
  {
    "Name": 0,
    "Description": 0,
    "Actions": 0,
    "Is Major Event": 0,
    "Printer card": 0,
    "Good Bad": 0,
    "Repeat": 0,
    "SYN Loss": 0,
    "SYN Gain": 0,
    "Blame Common": true,
    "Blame Alluring": 0,
    "Blame Impulsive": 0,
    "Blame Messy": 0,
    "Deprecated": 0
  },
  {
    "Name": 0,
    "Description": 0,
    "Actions": 0,
    "Is Major Event": 0,
    "Printer card": 0,
    "Good Bad": 0,
    "Repeat": 0,
    "SYN Loss": 0,
    "SYN Gain": 0,
    "Blame Common": true,
    "Blame Alluring": 0,
    "Blame Impulsive": 0,
    "Blame Messy": 0,
    "Deprecated": 0
  },
  {
    "Name": 0,
    "Description": 0,
    "Actions": 0,
    "Is Major Event": 0,
    "Printer card": 0,
    "Good Bad": 0,
    "Repeat": 0,
    "SYN Loss": 0,
    "SYN Gain": 0,
    "Blame Common": true,
    "Blame Alluring": false,
    "Blame Impulsive": 0,
    "Blame Messy": 0,
    "Deprecated": 0
  },
  {
    "Name": "The state of connection",
    "Description": "Starting at 12SYN, subtract one for each project in the completed projects pile.",
    "Actions": 0,
    "Is Major Event": 0,
    "Printer card": 0,
    "Good Bad": 0,
    "Repeat": 0,
    "SYN Loss": 0,
    "SYN Gain": 0,
    "Blame Common": 0,
    "Blame Alluring": 0,
    "Blame Impulsive": 0,
    "Blame Messy": 0,
    "Deprecated": true
  },
  {
    "Name": 0,
    "Description": 0,
    "Actions": 0,
    "Is Major Event": 0,
    "Printer card": 0,
    "Good Bad": 0,
    "Repeat": 0,
    "SYN Loss": 0,
    "SYN Gain": 0,
    "Blame Common": 0,
    "Blame Alluring": 0,
    "Blame Impulsive": 0,
    "Blame Messy": 0,
    "Deprecated": 0
  },
  {
    "Name": 0,
    "Description": 0,
    "Actions": 0,
    "Is Major Event": 0,
    "Printer card": 0,
    "Good Bad": 0,
    "Repeat": 0,
    "SYN Loss": 0,
    "SYN Gain": 0,
    "Blame Common": 0,
    "Blame Alluring": 0,
    "Blame Impulsive": 0,
    "Blame Messy": 0,
    "Deprecated": 0
  },
  {
    "Name": 0,
    "Description": 0,
    "Actions": 0,
    "Is Major Event": 0,
    "Printer card": 0,
    "Good Bad": 0,
    "Repeat": 0,
    "SYN Loss": 0,
    "SYN Gain": 0,
    "Blame Common": 0,
    "Blame Alluring": 0,
    "Blame Impulsive": 0,
    "Blame Messy": 0,
    "Deprecated": 0
  },
  {
    "Name": "38 letters",
    "Description": "7 lines",
    "Actions": 0,
    "Is Major Event": 0,
    "Printer card": 0,
    "Good Bad": 0,
    "Repeat": 0,
    "SYN Loss": -68,
    "SYN Gain": 34,
    "Blame Common": "16%",
    "Blame Alluring": "12%",
    "Blame Impulsive": "12%",
    "Blame Messy": "4%",
    "Deprecated": 0
  },
  {
    "Name": 0,
    "Description": 0,
    "Actions": 0,
    "Is Major Event": 0,
    "Printer card": 0,
    "Good Bad": 0,
    "Repeat": 0,
    "SYN Loss": 0,
    "SYN Gain": 0,
    "Blame Common": 0,
    "Blame Alluring": 0,
    "Blame Impulsive": 0,
    "Blame Messy": "44%",
    "Deprecated": 0
  }
]