[
  {
    "Card Name": "The Magic Touch",
    "Description": "Some things require rare minds to do",
    "Task Cost": "[Get an Inspiring Idea](2) 1C1A -> \n[Set Genius to it](6) 2A2L2C",
    "Tasks * Skills": 24,
    "Effect": 1,
    "Pay": 120,
    "Anchor": false,
    "": 0,
    "EffectOld": 3.5,
    "PayOld": 84
  },
  {
    "Card Name": "Grunt work",
    "Description": "What you mean you have nothing to do?  There's *plenty* of work to do.",
    "Task Cost": "[Move Things](8) Any",
    "Tasks * Skills": 2,
    "Effect": 1,
    "Pay": 10,
    "Anchor": true,
    "": 0,
    "EffectOld": 1.5,
    "PayOld": 3
  },
  {
    "Card Name": "Basic Simple Feature",
    "Description": 0,
    "Task Cost": "(5) 1A1C, (5) 1L2P",
    "Tasks * Skills": 4,
    "Effect": 1,
    "Pay": 20,
    "Anchor": false,
    "": 0,
    "EffectOld": 3,
    "PayOld": 12
  },
  {
    "Card Name": "Basic Intermediate Feature",
    "Description": 0,
    "Task Cost": "(5) 2A1C, (5) 2L -> (3)1C1P",
    "Tasks * Skills": 8,
    "Effect": 1,
    "Pay": 35,
    "Anchor": false,
    "": 0,
    "EffectOld": 3,
    "PayOld": 24
  },
  {
    "Card Name": "A Great Collab",
    "Description": "As hell froze over, the designers and engineers decided to work together.",
    "Task Cost": "[It will be pretty](3) 3A, \n  [It will work](3) 3L",
    "Tasks * Skills": 12,
    "Effect": 1,
    "Pay": 40,
    "Anchor": false,
    "": 0,
    "EffectOld": 3,
    "PayOld": 36
  },
  {
    "Card Name": "Ad Campaign",
    "Description": "I hear non-sequiturs and shrieking are pretty popular these days.",
    "Task Cost": "[Choose an Angle](2) 1L2C, \n  [Create an Aesthetic](1) 2A -> \n[Pump Out Content](5)1A, \n  [Plaster it Everywhere](5)1C ",
    "Tasks * Skills": 13,
    "Effect": 1,
    "Pay": 30,
    "Anchor": false,
    "": 0,
    "EffectOld": 3,
    "PayOld": 39
  },
  {
    "Card Name": "Happy Feature",
    "Description": "Oooh!  They added emojis! 😃",
    "Task Cost": "[Design](4) 1A -> \n[Implement](4) 2L -> \n[Market](4) 1C",
    "Tasks * Skills": 8,
    "Effect": 1,
    "Pay": 25,
    "Anchor": false,
    "": 0,
    "EffectOld": 3,
    "PayOld": 24
  },
  {
    "Card Name": "Complex Feature",
    "Description": 0,
    "Task Cost": "[Design](4) 2A1P -> \n[Implement](5) 2L1P -> \n[Market](2) 1C",
    "Tasks * Skills": 16,
    "Effect": 1,
    "Pay": 40,
    "Anchor": false,
    "": 0,
    "EffectOld": 3,
    "PayOld": 48
  },
  {
    "Card Name": "Futuristic Feature",
    "Description": "The hardest part of raising the bar is making it idiot proof.",
    "Task Cost": "[Design](4) 3A1C -> \n[Implement](4) 3L -> \n[Market](5) 3C",
    "Tasks * Skills": 24,
    "Effect": 1,
    "Pay": 70,
    "Anchor": false,
    "": 0,
    "EffectOld": 3,
    "PayOld": 72
  },
  {
    "Card Name": "Who let the designers out?",
    "Description": "The design team thought it would look really cool if...",
    "Task Cost": "[Half Bake a Flashy Idea](2) 1A -> \n[Make it Happen](15) 2L1C",
    "Tasks * Skills": 22,
    "Effect": 0.9,
    "Pay": 45,
    "Anchor": false,
    "": 0,
    "EffectOld": 3,
    "PayOld": 66
  },
  {
    "Card Name": "Simple redesign",
    "Description": "Obsessing over tiny details isn't neurotic if it's art.",
    "Task Cost": "[Plan Improvements](4) 1A1C -> \n[Implement Changes](3)1L ",
    "Tasks * Skills": 6,
    "Effect": 1,
    "Pay": 13,
    "Anchor": false,
    "": 0,
    "EffectOld": 3,
    "PayOld": 18
  },
  {
    "Card Name": "Major redesign",
    "Description": "The game has changed and it's time to catch up.",
    "Task Cost": "[Plan Improvements](4) 1A2C -> \n[Implement Changes](5)2L",
    "Tasks * Skills": 24,
    "Effect": 1,
    "Pay": 35,
    "Anchor": false,
    "": 0,
    "EffectOld": 3,
    "PayOld": 72
  },
  {
    "Card Name": "Rebrand",
    "Description": "What if we did, like, a space cockroach thing?",
    "Task Cost": "[Find an Identity](4)3C -> \n[Create a Style](2) 3A1C -> \n[Implement Updates](4)2L, (5)2A",
    "Tasks * Skills": 36,
    "Effect": 1,
    "Pay": 50,
    "Anchor": false,
    "": 0,
    "EffectOld": 3,
    "PayOld": 108
  },
  {
    "Card Name": "Video Tutorials",
    "Description": "\"Hey, I'm Dr. Tutor and I'm here to show you how to find your own legs.\"",
    "Task Cost": "[Record Explanations](8) 1L2C2P",
    "Tasks * Skills": 36,
    "Effect": 1,
    "Pay": 65,
    "Anchor": false,
    "": 0,
    "EffectOld": 2.25,
    "PayOld": 81
  },
  {
    "Card Name": "Cold calling",
    "Description": 0,
    "Task Cost": "[Sway Strangers](10) 2C2P, \n[Setup Accounts](5) 2L1C1P",
    "Tasks * Skills": 10,
    "Effect": 0.75,
    "Pay": 45,
    "Anchor": true,
    "": 0,
    "EffectOld": 1.7,
    "PayOld": 17
  },
  {
    "Card Name": "Mass Proofreading",
    "Description": "Its amazing how many typos their are in proffessional products.",
    "Task Cost": "[Spellcheck](10)1L2P",
    "Tasks * Skills": 0,
    "Effect": 1.1,
    "Pay": 25,
    "Anchor": 0,
    "": 0,
    "EffectOld": 0,
    "PayOld": 0
  },
  {
    "Card Name": "New service",
    "Description": 0,
    "Task Cost": "[Layout Guidelines](3)1L1P1C ->\n[Fufill the Service](10)1C",
    "Tasks * Skills": 0,
    "Effect": 1,
    "Pay": 20,
    "Anchor": false,
    "": 0,
    "EffectOld": 0,
    "PayOld": 0
  },
  {
    "Card Name": "New color",
    "Description": "If you liked our logo in red, you'll love it in slightly orangish red!",
    "Task Cost": "[Change Fill and Export](15)1A2P",
    "Tasks * Skills": 16,
    "Effect": 1,
    "Pay": 40,
    "Anchor": false,
    "": 0,
    "EffectOld": 3,
    "PayOld": 48
  },
  {
    "Card Name": "Accessibility Improvements",
    "Description": 0,
    "Task Cost": "[Improve Contrast] (4) 2A,\n  [Simplify Interface] (4) 2L",
    "Tasks * Skills": 0,
    "Effect": 1,
    "Pay": 25,
    "Anchor": false,
    "": 0,
    "EffectOld": 0,
    "PayOld": 0
  },
  {
    "Card Name": "File company taxes",
    "Description": 0,
    "Task Cost": "[Read Fine Print](6)1L2P,\n  [Navigate Beurocracy](3)1L1C2P",
    "Tasks * Skills": 0,
    "Effect": 1,
    "Pay": 25,
    "Anchor": false,
    "": 0,
    "EffectOld": 0,
    "PayOld": 0
  },
  {
    "Card Name": "Misc Engineering",
    "Description": 0,
    "Task Cost": "[Solve Puzzles](8)1L (4) 2L",
    "Tasks * Skills": 6,
    "Effect": 1,
    "Pay": 25,
    "Anchor": true,
    "": 0,
    "EffectOld": 2,
    "PayOld": 12
  },
  {
    "Card Name": "Misc Design",
    "Description": 0,
    "Task Cost": "[Make Things Nice](8)1A (4) 2A",
    "Tasks * Skills": 6,
    "Effect": 1,
    "Pay": 25,
    "Anchor": true,
    "": 0,
    "EffectOld": 2,
    "PayOld": 12
  },
  {
    "Card Name": "Misc Sales",
    "Description": 0,
    "Task Cost": "[Be Convincing](8)1C (4) 2C",
    "Tasks * Skills": 6,
    "Effect": 1,
    "Pay": 25,
    "Anchor": true,
    "": 0,
    "EffectOld": 2,
    "PayOld": 12
  },
  {
    "Card Name": "Misc Support",
    "Description": 0,
    "Task Cost": "[Be Hospitable](8)1P (4) 2P",
    "Tasks * Skills": 6,
    "Effect": 1,
    "Pay": 15,
    "Anchor": true,
    "": 0,
    "EffectOld": 2,
    "PayOld": 12
  },
  {
    "Card Name": "Community Engagement",
    "Description": 0,
    "Task Cost": "[Chat it Up](12)1P1C",
    "Tasks * Skills": 0,
    "Effect": 1.2,
    "Pay": 15,
    "Anchor": true,
    "": 0,
    "EffectOld": 0,
    "PayOld": 0
  },
  {
    "Card Name": "Archive",
    "Description": 0,
    "Task Cost": 0,
    "Tasks * Skills": 0,
    "Effect": 1,
    "Pay": 0,
    "Anchor": false,
    "": 0,
    "EffectOld": 0,
    "PayOld": 0
  },
  {
    "Card Name": "Data Entry",
    "Description": "The trick is to never cross your eyes, even when you're nodding off.",
    "Task Cost": "[First See then Type](10)1L2P",
    "Tasks * Skills": 30,
    "Effect": 1,
    "Pay": 20,
    "Anchor": true,
    "": 0,
    "EffectOld": 2,
    "PayOld": 60
  },
  {
    "Card Name": 0,
    "Description": 0,
    "Task Cost": 0,
    "Tasks * Skills": 0,
    "Effect": 0,
    "Pay": 0,
    "Anchor": 0,
    "": 0,
    "EffectOld": 0,
    "PayOld": 0
  }
]