<?xml version="1.0" encoding="UTF-8"?>
<svg width="50px" height="50px" viewBox="0 0 50 50" version="1.1" xmlns="http://www.w3.org/2000/svg" xmlns:xlink="http://www.w3.org/1999/xlink">
    <!-- Generator: Sketch 50.2 (55047) - http://www.bohemiancoding.com/sketch -->
    <title>Material/Carpet/Dark-Grey</title>
    <desc>Created with Sketch.</desc>
    <defs></defs>
    <g id="Material/Carpet/Dark-Grey" stroke="none" stroke-width="1" fill="none" fill-rule="evenodd">
        <rect id="Rectangle-28" fill="#3E3E3E" x="0" y="0" width="50" height="50"></rect>
        <g id="Group" opacity="0.20390625" style="mix-blend-mode: multiply;" transform="translate(-1.000000, 3.000000)" stroke="#979797" stroke-linecap="square">
            <path d="M0.5,31.5 L50.5,31.5" id="Line"></path>
            <path d="M0.5,39.5 L50.5,39.5" id="Line-Copy-7"></path>
            <path d="M0.5,33.5 L50.5,33.5" id="Line-Copy-5"></path>
            <path d="M0.5,42.5 L50.5,42.5" id="Line-Copy-6"></path>
            <path d="M0.5,29.5 L50.5,29.5" id="Line-Copy"></path>
            <path d="M0.5,22.5 L50.5,22.5" id="Line-Copy-2"></path>
            <path d="M0.5,19.5 L50.5,19.5" id="Line-Copy-8"></path>
            <path d="M0.5,9.5 L50.5,9.5" id="Line-Copy-3"></path>
            <path d="M0.5,5.5 L50.5,5.5" id="Line-Copy-4"></path>
            <path d="M0.5,1.5 L50.5,1.5" id="Line-Copy-9"></path>
        </g>
    </g>
</svg>