<?xml version="1.0" encoding="UTF-8"?>
<svg width="336px" height="240px" viewBox="0 0 336 240" version="1.1" xmlns="http://www.w3.org/2000/svg" xmlns:xlink="http://www.w3.org/1999/xlink">
    <!-- Generator: Sketch 50.2 (55047) - http://www.bohemiancoding.com/sketch -->
    <title>Card/Back/Employee</title>
    <desc>Created with Sketch.</desc>
    <defs></defs>
    <g id="Card/Back/Employee" stroke="none" stroke-width="1" fill="none" fill-rule="evenodd">
        <text id="Synergy" font-family="Helvetica" font-size="20" font-weight="normal" fill="#000000">
            <tspan x="34.3154297" y="148">Synergy</tspan>
        </text>
        <path d="M137,26 L137,208" id="Path-4" stroke="#979797"></path>
        <g id="Group" transform="translate(155.000000, 75.000000)" font-weight="normal">
            <text id="Employee-Card" font-family="Helvetica" font-size="20" fill="#4A90E2">
                <tspan x="0" y="19">Employee Card</tspan>
            </text>
            <text id="Game-Piece" font-family="Helvetica-Oblique, Helvetica" font-size="12" font-style="italic" fill="#899297">
                <tspan x="0" y="38">Game Piece</tspan>
            </text>
        </g>
        <g id="Group-2" opacity="0.383147321" transform="translate(10.000000, 10.000000)"></g>
        <g id="Icon/SynergyLightning" transform="translate(31.000000, 49.000000)">
            <path d="M25.866804,8.79538049 C17.4218227,17.4092614 17.4218227,17.4092614 8.97684145,26.0231423 C2.60242572,32.5250463 2.66648543,45.4654258 9.10496087,51.9039013 C17.5499421,60.3488825 17.5499421,60.3488825 25.9949234,68.7938638 C32.4974617,75.2964021 45.5025383,75.2964021 52.0050766,68.7938638 C60.4500579,60.3488825 60.4500579,60.3488825 68.8950391,51.9039013 C75.3335146,45.4654258 75.3975743,32.5250463 69.0231586,26.0231423 C60.5781773,17.4092614 60.5781773,17.4092614 52.133196,8.79538049 C45.566598,2.09745052 32.433402,2.09745052 25.866804,8.79538049 Z" id="Path-35-Copy" fill="#4A4A4A"></path>
            <path d="M27.0249985,11.4345015 C19.3247659,19.2887387 19.3247659,19.2887387 11.6245334,27.1429759 C5.81226671,33.071488 5.8706771,44.8706771 11.7413542,50.7413542 C19.4415867,58.4415867 19.4415867,58.4415867 27.1418193,66.1418193 C33.0709096,72.0709096 44.9290904,72.0709096 50.8581807,66.1418193 C58.5584133,58.4415867 58.5584133,58.4415867 66.2586458,50.7413542 C72.1293229,44.8706771 72.1877333,33.071488 66.3754666,27.1429759 C58.6752341,19.2887387 58.6752341,19.2887387 50.9750015,11.4345015 C44.9875008,5.32725077 33.0124992,5.32725077 27.0249985,11.4345015 Z" id="Path-35-Copy-2" fill="#00CBA0"></path>
            <g id="Group-2" stroke-width="1" transform="translate(39.390000, 38.415000) rotate(15.000000) translate(-39.390000, -38.415000) translate(6.240000, 5.070000)">
                <path d="M31.9073381,6.56639231 C26.603605,16.0414442 26.254391,15.1436384 21.1764149,26.3449567 C17.6261876,34.1762707 21.0976925,39.00257 27.4290647,39.248725 C29.6327971,39.3344031 31.4989937,39.2381149 33.961139,39.248725 C36.9231892,39.2614894 40.2181658,41.8815595 39.2109081,46.1219873 C37.486807,53.3802359 38.6709983,49.4291134 35.2969307,60.4732377 C34.6228855,62.679548 35.377745,62.2629447 36.2188271,60.5883135 C41.6107941,49.8526706 39.8822714,53.9496462 46.4825604,39.6145977 C48.5839399,35.0506492 45.7860681,27.9924499 39.4495252,28.328725 C37.0883194,28.4540323 35.8572467,28.3801395 34.249463,28.328725 C31.2525637,28.2328888 27.7716474,25.4895344 28.9263309,21.432104 C30.8160346,14.7918929 30.7737575,13.3655522 32.9425557,6.9544545 C33.8437634,4.29043035 33.0644367,4.49925032 31.9073381,6.56639231 Z" id="Path-8-Copy" fill="#FFDD00"></path>
                <circle id="Oval" fill="#4A4A4A" cx="42.3430847" cy="18.0744967" r="4.68"></circle>
                <path d="M24.4823495,53.9342284 C21.8976569,53.9342284 19.8023495,51.838921 19.8023495,49.2542284 C19.8023495,46.6695357 21.8976569,44.5742284 24.4823495,44.5742284 C27.0670421,44.5742284 29.1623495,46.6695357 29.1623495,49.2542284 C29.1623495,51.838921 27.0670421,53.9342284 24.4823495,53.9342284 Z M24.4823495,52.3742284 C26.2054779,52.3742284 27.6023495,50.9773568 27.6023495,49.2542284 C27.6023495,47.5310999 26.2054779,46.1342284 24.4823495,46.1342284 C22.7592211,46.1342284 21.3623495,47.5310999 21.3623495,49.2542284 C21.3623495,50.9773568 22.7592211,52.3742284 24.4823495,52.3742284 Z" id="Oval-2" fill="#4A4A4A"></path>
            </g>
        </g>
        <g id="Group-3" transform="translate(10.000000, 137.000000)" stroke="#979797">
            <polyline id="Path-8" points="0 0 0 93 92 93"></polyline>
            <polyline id="Path-9" points="5 39 5 87 52 87"></polyline>
            <rect id="Rectangle" x="10.5" y="66.5" width="14" height="14"></rect>
            <rect id="Rectangle-2" x="4.5" y="29.5" width="4" height="4"></rect>
            <rect id="Rectangle-3" x="59.5" y="82.5" width="4" height="4"></rect>
        </g>
        <g id="Group-3-Copy" transform="translate(282.000000, 54.500000) rotate(-180.000000) translate(-282.000000, -54.500000) translate(236.000000, 8.000000)" stroke="#979797">
            <polyline id="Path-8" points="0 0 0 93 92 93"></polyline>
            <polyline id="Path-9" points="5 39 5 87 52 87"></polyline>
            <rect id="Rectangle" x="10.5" y="66.5" width="14" height="14"></rect>
            <rect id="Rectangle-2" x="4.5" y="29.5" width="4" height="4"></rect>
            <rect id="Rectangle-3" x="59.5" y="82.5" width="4" height="4"></rect>
        </g>
        <g id="Group-4" transform="translate(163.000000, 150.000000)" fill="#535454" font-family="Helvetica" font-size="11" font-weight="normal">
            <text id="www.synergy-game.com">
                <tspan x="0" y="10">www.synergy-game.com</tspan>
            </text>
            <text id="(737)-837-5309">
                <tspan x="0" y="25">(737)-837-5309</tspan>
            </text>
            <text id="Card@synergy-game.co">
                <tspan x="0" y="41">Card@synergy-game.com</tspan>
            </text>
        </g>
    </g>
</svg>