id,Name,Effect,Type,Upkeep Cost
dog,Doggo,**3** {{TASK}} = SYN+2,pet,3
cat,Cat,**2** {{TASK}} = SYN+1,pet,2
fish,Aquarium,**3** {{TASK}} = SYN+1,pet,1
couch,Couch,**2** {{TASK}} from any {{EMEE}} =  remove **1** {{BLAME}} from any {{EMEE}},furniture,0
beanbag,Bean Bag,**4** {{TASK}} = SYN+1,furniture,0
arcade,Arcade Cabinet,**5** {{TASK}} = remove {{BLAME}} from any *worker*.,furniture,0
sodMound,Sod Mound,**4** {{TASK}} = SYN+1,furniture,0