Card,Concept,Art,Logic,Charisma,Patience,PayOffset,SynOffset,,Pay,MinSyn,Animal,Svg,Name,Gender,Hair Color,Hair Length,Hair Type,Shirt Type or color,Head Accessories,Skin Color
2,Lemon,0,0,0,3,-1,0,,1,-10,Hound,✓,Morty (m),m,Brown,Short,Blob,Yellow t-shirt,None,Beige
3,Intern (Art),1,0,0,3,0,0,,1,-10,Gopher,✓,Taylor (a),a,,,,,,
5,Jr Artist (+PAT),1,0,0,2,0,-5,,1,-5,Bunny,✓,Kat (f),f,Orange,Shoulder-length,Bob,Red,Fishbone Necklace,Light pink
4,Jr Engineer,0,1,0,2,0,0,,1,0,Raccoon,✓,Scott (m),m,,,,,,
6,Jr Sales,0,0,2,2,0,5,,2,5,Rat,✓,Aiden (m),m,Brown,Short,Wavy,Purple,,Light blue
7,Sr Artist (+PAT),2,0,0,1,0,0,,2,10,Frog,✓,Micheal (m),m,,,,Orange,,Light green
8,Sr Engineer,1,2,0,1,0,0,,3,10,Owl,✓,Joey (m),m,Blonde,Short,Frizzy,Blue,Glasses,Freckled
9,Sr Sales,1,0,3,1,0,-5,,4,5,Shark,✓,Ron (m),m,,,,,,
10,Shalurkin (+ART),2,1,1,0,0,0,,4,20,,,Lemb (f),,Super light blonde,Ear-length,Bob,White,,
Jack,Jack of all trades (+ART),2,1,1,2,0,5,,4,5,,,Inigo ,m,Teal & Purple,Ear-Length,Bob,Grey,Nose ring,Tanned white
Queen,Design God (PAT),3,1,1,2,0,0,,5,0,Horse,,Clint (m),m,-,-,Bald,Button up (light blue?),Beard,Light pink
King,Logic God (+ART),2,3,1,0,0,0,,6,20,Robot,✓,Arnold (m),m,Dirty Blonde,Short,Wavy,Black or Army pattern,Sunglasses,Light brown
Ace,Fragile Unicorn (-ART),1,2,2,0,0,-5,,5,15,Unicorn,✓,Charlie (m),m,Black,Short,Curly,Brown,Moustache ? um,Pale
2,Lemon,0,0,0,0,-1,0,,1,20,Giraffe,,Moe (m),,Black,Short,Curly,Blue,Bow tie,Yellow
3,Intern (+LOG),0,1,0,3,0,5,,1,-5,Tiger,✓,Chris (a),,White,Short,Straight,Purple,Glasses & white beard,Grey
5,Jr Artist,1,0,0,2,0,0,,1,0,Chameleon,,Diana (f),,Dark Brown,Shoulder-length,Straight-bob,Pink,,Pale
4,Jr Engineer (+PAT),0,1,0,2,0,0,,1,0,Armadillo,,Brad (m),,Black,Long,Dreads,Green,,Dark Brown
6,Jr Sales,0,0,2,2,0,-5,,2,-5,,,Ed (m),,Black,Short,,Baby Blue,,Brown
7,Sr Artist,2,1,0,1,0,0,,3,10,,,Rafael (f),,,,,Red,,Light green
8,Sr Engineer (+PAT),0,2,0,1,0,5,,2,15,Penguin,✓,Jodie (f),,Blonde highlights,Shoulder-length,Straight,Blue button up,,Tan
9,Sr Sales,0,1,3,1,0,0,,4,10,,,Felix (m),,Blonde,Short,Straight,Light pink button up,,Tanned white
10,Shalurkin (+LOG),1,2,1,0,0,0,,4,20,Ladybug,✓,Jacqueline (f),,Blonde,Short,Curly,Black,Red lipstick,Pale
Jack,Jack of all trades (+LOG),1,2,1,2,0,-5,,4,-5,,,Janice (f),,Dirty Blonde,Long,Braids,Black,Nose ring,Pale
Queen,Design God (+LOG),3,2,1,0,0,0,,6,20,,,Jared (m),,Blonde,Shoulder-length,Frizzy,Grey,Glasses,Freckled
King,Logic God (+PAT),1,3,1,2,0,5,,5,5,,,Dexter (m),,Orange,,,White,Black thick-rimmed glasses,Light pink
Ace,Fragile Unicorn (-LOG),2,1,2,0,0,0,,5,20,Alien,,Rick (m),,Blue,Shoulder-length,Mad Scientist,White,,White
2,Lemon,0,0,0,1,-1,0,,1,10,,,Karen (f),,Orange,Long,,Green,Earrings,Pink
3,Intern (CHA),0,0,1,3,0,5,,1,-5,Hippo,✓,Pat (a),,Dark brown,Short,Curly,Plaid,Black thick-rimmed glasses,Pale
5,Jr Artist,1,0,0,2,0,0,,1,0,,,Joanne (f),,Black with purple highlights,Shoulder-length,Bob,,,Light brown
4,Jr Engineer,0,1,0,2,0,5,,1,5,,,Kelly (f),,,,,,,
6,Jr Sales (+PAT),0,0,2,2,0,0,,2,0,,,Jane (f),,,,,,,
7,Sr Artist,2,0,1,1,0,0,,3,10,Duck,✓,Don (f),,,,,Purple,,Light green
8,Sr Engineer,0,2,1,1,0,-5,,3,5,,,Eric (m),,,,,,,
9,Sr Sales (+PAT),0,0,3,1,0,0,,3,10,Dragon,✓,Lisa (f),,,,,,,
10,Shalurkin (+CHA),1,1,2,0,0,-5,,4,15,Black-Cat,✓,Murphy,f,Black,Shoulder-length,Straight,Black,Glasses,Olive
Jack,Jack of all trades (+CHA),1,1,2,2,0,0,,4,0,,,Jerome (m),,Black,Shaved,Buzz-cut,Grey,Glasses,Brown
Queen,Design God (+CHA),3,1,2,0,0,0,,6,20,,,Coco (f),,Black,Ear-length,Wavy-bob,Red,Diamond earrings / pearl necklace,Pale
King,Logic God (+CHA),1,3,2,0,0,-5,,6,15,fenix,,Camina (f),,Pink,Ear-length,Bob,Purple,Big earrings,Brown
Ace,Fragile Unicorn (-CHA),2,2,1,0,0,0,,5,20,pandolin,,Cleopatra (f),,Black,Short,Straight-bob,Gold,Big earrings,Tan
2,Lemon,0,0,0,1,-3,5,,3,15,red panda,,Derpo (a),,Green,,,,,
3,General Purpose Intern,0,0,0,3,0,0,,0,-10,,,Jessie (a),,,,,,,
5,Jr Artist,1,0,0,3,0,0,,1,-10,,,Pted (m),,,,,,,
4,Jr Engineer,0,1,0,3,0,-5,,1,-15,,,Gregerth (f),,,,,,,
6,Jr Sales,0,0,2,3,0,0,,2,-10,,,Hoopy (f),,,,,,,
7,Sr Artist,2,0,0,2,0,5,,2,5,,,Leo (m),,,,,Blue,,Light green
8,Sr Engineer,0,2,0,2,0,0,,2,0,,,Bront (m),,White,Short,Fuzzy,White & Black,,
9,Sr Sales,0,0,3,2,0,0,,3,0,,,Jhilson (f),,,,,,,
10,Shalurkin,3,2,1,0,1,-5,,5,15,Totoro,✓,Shalena (f),f,Brown,Long,Braids,Flannel or polka dot,Necklace?,Pale
Jack,Jack of all trades,2,2,2,3,1,0,,5,-10,T-Rex,✓,Misty,f,Dark brown,Long,Wavy,Tan button up & vest,Moustache,Light brown
Queen,Queen of design,3,1,1,0,0,-5,,5,15,,,Bean (f),,White,Long,Wavy,Teal,Buck tooth,Pale
King,King of engineering,1,3,2,3,0,0,,6,-10,,,Musky (m),,Dirty Blonde,Short,Blob,Black,,
Ace,Fragile Unicorn,3,3,3,1,1,0,,8,10,Cockroach,✓,Seph (m),,Blonde,Long,Dreads,Orange,,Tan
Example,,1,2,1,3,0,5,,4,-5,,,Examplo,,,,,,,
,,53,52,53,76,,,,,,,,,,,,,,,
,,,,,,,,,,,,,,,,,,,,
,,,,,,,,,,,,,,,,,,,,
,At 0,21,21,21,13,,,,,,,,,,,,,,,
,At 0%,40%,40%,40%,25%,,,,,,,,,,,,,,,
,At 1,15,15,14,12,,,,,,,,,,,,,,,
,At 1%,29%,29%,27%,23%,,,,,,,,,,,,,,,
,At 2,10,11,12,17,,,,,,,,,,,,,,,
,At 2%,19%,21%,23%,33%,,,,,,,,,,,,,,,
,At 3,6,5,5,10,,,,,,,,,,,,,,,
,At 3%,12%,10%,10%,19%,,,,,,,,,,,,,,,