Card Name,Description,Task Cost,Tasks * Skills,Effect,Pay,Anchor,,,,EffectOld,PayOld
The Magic Touch,Some things require rare minds to do,"[Get an Inspiring Idea](2) 1C1A -> 
[Set Genius to it](6) 2A2L2C",24,1,120,FALSE,,,,3.5,84
Grunt work,What you mean you have nothing to do?  There's *plenty* of work to do.,[Move Things](8) Any,2,1,10,TRUE,,,,1.5,3
Basic Simple Feature,,"(5) 1A1C, (5) 1L2P",4,1,20,FALSE,,,,3,12
Basic Intermediate Feature,,"(5) 2A1C, (5) 2L -> (3)1C1P",8,1,35,FALSE,,,,3,24
A Great Collab,"As hell froze over, the designers and engineers decided to work together.","[It will be pretty](3) 3A, 
  [It will work](3) 3L",12,1,40,FALSE,,,,3,36
Ad Campaign,I hear non-sequiturs and shrieking are pretty popular these days.,"[Choose an Angle](2) 1L2C, 
  [Create an Aesthetic](1) 2A -> 
[Pump Out Content](5)1A, 
  [Plaster it Everywhere](5)1C ",13,1,30,FALSE,,,,3,39
Happy Feature,Oooh!  They added emojis! 😃,"[Design](4) 1A -> 
[Implement](4) 2L -> 
[Market](4) 1C",8,1,25,FALSE,,,,3,24
Complex Feature,,"[Design](4) 2A1P -> 
[Implement](5) 2L1P -> 
[Market](2) 1C",16,1,40,FALSE,,,,3,48
Futuristic Feature,The hardest part of raising the bar is making it idiot proof.,"[Design](4) 3A1C -> 
[Implement](4) 3L -> 
[Market](5) 3C",24,1,70,FALSE,,,,3,72
Who let the designers out?,The design team thought it would look really cool if...,"[Half Bake a Flashy Idea](2) 1A -> 
[Make it Happen](15) 2L1C",22,0.9,45,FALSE,,,,3,66
Simple redesign,Obsessing over tiny details isn't neurotic if it's art.,"[Plan Improvements](4) 1A1C -> 
[Implement Changes](3)1L ",6,1,13,FALSE,,,,3,18
Major redesign,The game has changed and it's time to catch up.,"[Plan Improvements](4) 1A2C -> 
[Implement Changes](5)2L",24,1,35,FALSE,,,,3,72
Rebrand,"What if we did, like, a space cockroach thing?","[Find an Identity](4)3C -> 
[Create a Style](2) 3A1C -> 
[Implement Updates](4)2L, (5)2A",36,1,50,FALSE,,,,3,108
Video Tutorials,"""Hey, I'm Dr. Tutor and I'm here to show you how to find your own legs.""",[Record Explanations](8) 1L2C2P,36,1,65,FALSE,,,,2.25,81
Cold calling,,"[Sway Strangers](10) 2C2P, 
[Setup Accounts](5) 2L1C1P",10,0.75,45,TRUE,,,,1.7,17
Mass Proofreading,Its amazing how many typos their are in proffessional products.,[Spellcheck](10)1L2P,,1.1,25,,,,,,
New service,,"[Layout Guidelines](3)1L1P1C ->
[Fufill the Service](10)1C",,1,20,FALSE,,,,,0
New color,"If you liked our logo in red, you'll love it in slightly orangish red!",[Change Fill and Export](15)1A2P,16,1,40,FALSE,,,,3,48
Accessibility Improvements,,"[Improve Contrast] (4) 2A,
  [Simplify Interface] (4) 2L",,1,25,FALSE,,,,,0
File company taxes,,"[Read Fine Print](6)1L2P,
  [Navigate Beurocracy](3)1L1C2P",,1,25,FALSE,,,,,0
Misc Engineering,,[Solve Puzzles](8)1L (4) 2L,6,1,25,TRUE,,,,2,12
Misc Design,,[Make Things Nice](8)1A (4) 2A,6,1,25,TRUE,,,,2,12
Misc Sales,,[Be Convincing](8)1C (4) 2C,6,1,25,TRUE,,,,2,12
Misc Support,,[Be Hospitable](8)1P (4) 2P,6,1,15,TRUE,,,,2,12
Community Engagement,,[Chat it Up](12)1P1C,,1.2,15,TRUE,,,,,0
Archive,,,,1,0,FALSE,,,,,0
Data Entry,"The trick is to never cross your eyes, even when you're nodding off.",[First See then Type](10)1L2P,30,1,20,TRUE,,,,2,60
,,,,,0,,,,,,