<?xml version="1.0" encoding="UTF-8"?>
<svg width="32px" height="32px" viewBox="0 0 32 32" version="1.1" xmlns="http://www.w3.org/2000/svg" xmlns:xlink="http://www.w3.org/1999/xlink">
    <!-- Generator: Sketch 50.2 (55047) - http://www.bohemiancoding.com/sketch -->
    <title>Icon/Skill/Patience</title>
    <desc>Created with Sketch.</desc>
    <defs></defs>
    <g id="Icon/Skill/Patience" stroke="none" stroke-width="1" fill="none" fill-rule="evenodd">
        <circle id="Path" fill="#FFFFFF" cx="16" cy="16" r="16"></circle>
        <path d="M16,32 C7.163444,32 0,24.836556 0,16 C0,7.163444 7.163444,0 16,0 C24.836556,0 32,7.163444 32,16 C32,24.836556 24.836556,32 16,32 Z M10,25 L10,26 L22,26 L22,25 L10,25 Z M21,25 C21,19 17,20 17,16 L15,16 C15,20 11,19 11,25 L21,25 Z M10,5 L10,6 L22,6 L22,5 L10,5 Z M17,15 C17,11 21,12 21,6 L11,6 C11,12 15,11 15,15 L17,15 Z" id="Oval" fill="#4A90E2"></path>
    </g>
</svg>