<?xml version="1.0" encoding="UTF-8"?>
<svg width="32px" height="32px" viewBox="0 0 32 32" version="1.1" xmlns="http://www.w3.org/2000/svg" xmlns:xlink="http://www.w3.org/1999/xlink">
    <!-- Generator: Sketch 50.2 (55047) - http://www.bohemiancoding.com/sketch -->
    <title>Icon/Direction/Repeat</title>
    <desc>Created with Sketch.</desc>
    <defs></defs>
    <g id="Icon/Direction/Repeat" stroke="none" stroke-width="1" fill="none" fill-rule="evenodd">
        <g id="CurveArrow180" transform="translate(2.000000, 2.000000)" fill="#4A4A4A">
            <path d="M21.2942854,2.02483059 L21.8298897,1.388682 C21.9636414,1.22982232 22.1435326,1.11654376 22.3445916,1.06457108 C22.8793007,0.926351676 23.4248171,1.24777009 23.5630365,1.78247921 L24.7273693,6.28676259 L20.0786821,5.92650697 C19.8701297,5.91034495 19.6718958,5.82919079 19.5118811,5.69446662 C19.0893997,5.33875902 19.0352688,4.70791217 19.3909764,4.28543076 L19.873601,3.71220731 C18.1690962,2.78009002 16.2118771,2.25 14.1304348,2.25 C7.52703017,2.25 2.17391304,7.5852734 2.17391304,14.1666667 C2.17391304,20.7480599 7.52703017,26.0833333 14.1304348,26.0833333 C20.7338394,26.0833333 26.0869565,20.7480599 26.0869565,14.1666667 C26.0869565,12.6179539 25.7905329,11.1382437 25.2511473,9.78081977 L27.286605,9.01752313 C27.9154987,10.6124128 28.2608696,12.3493413 28.2608696,14.1666667 C28.2608696,21.9446769 21.9344584,28.25 14.1304348,28.25 C6.32641114,28.25 0,21.9446769 0,14.1666667 C0,6.38865644 6.32641114,0.0833333333 14.1304348,0.0833333333 C16.745021,0.0833333333 19.193752,0.791077237 21.2942854,2.02483059 Z" id="Oval-5"></path>
        </g>
        <polyline id="Path-23" stroke="#4A4A4A" stroke-width="2" points="16 6 16 16 10 22"></polyline>
    </g>
</svg>