<?xml version="1.0" encoding="UTF-8"?>
<svg width="250px" height="100px" viewBox="0 0 250 100" version="1.1" xmlns="http://www.w3.org/2000/svg" xmlns:xlink="http://www.w3.org/1999/xlink">
    <!-- Generator: Sketch 50.2 (55047) - http://www.bohemiancoding.com/sketch -->
    <title>Placeable/Fish</title>
    <desc>Created with Sketch.</desc>
    <defs></defs>
    <g id="Placeable/Fish" stroke="none" stroke-width="1" fill="none" fill-rule="evenodd">
        <g id="Group">
            <rect id="Rectangle-8" fill="#474747" x="0" y="0" width="250" height="100"></rect>
            <rect id="Rectangle" fill="#757575" x="4" y="4" width="241" height="92"></rect>
        </g>
        <g id="Group-3" transform="translate(11.000000, 3.000000)">
            <g id="Group-2">
                <polygon id="Path-6" fill="#42B263" points="10.5 63 6.5 50.5 17 56.75 23.5 50.5 23.5 63 38.5 63 31 71 31 78 17 75 17 86 6.5 78 0 75 0 63"></polygon>
                <path d="M60.8999274,7.49977323 L60.3620806,5.81900172 C59.972531,4.60165935 60.6435897,3.29901606 61.860932,2.9094665 C62.4924234,2.70738926 63.180258,2.78586785 63.75,3.125 L65.1257301,3.94388694 C67.4140246,5.305967 70.3304236,4.97074653 72.25,3.125 L72.25,3.125 C73.0141811,2.39021052 74.2293368,2.41403711 74.9641262,3.17821816 C75.3079546,3.5357997 75.5,4.01260514 75.5,4.5086722 L75.5,6.25 C75.5,9.70177969 78.2982203,12.5 81.75,12.5 L85.017072,12.5 C86.3289581,12.5 87.3924519,13.5634938 87.3924519,14.87538 C87.3924519,15.4788687 87.1627508,16.0597325 86.75,16.5 L85.393794,17.9466198 C83.8558729,19.5870689 83,21.7513838 83,24 L83,24 C83,25.562665 81.7332097,26.8294553 80.1705447,26.8294553 C79.9712667,26.8294553 79.7725461,26.8084027 79.5776916,26.7666482 L74.3779133,25.65241 C71.9768056,25.1378869 69.6132199,26.6672659 69.0986968,29.0683736 C69.0330825,29.3745736 69,29.6868487 69,30 L69,30 C69,31.504428 67.7804201,32.7240079 66.2759921,32.7240079 C65.6795359,32.7240079 65.0995657,32.5282405 64.6251255,32.1667623 L61.2068057,29.5623281 C59.4076722,28.1915598 57.4639218,27.02181 55.4102695,26.0739705 L55.25,26 C53.2687536,25.0855786 52,23.1026317 52,20.9205447 L52,17.75 C52,14.8505051 54.3505051,12.5 57.25,12.5 L57.25,12.5 C59.3664932,12.5 61.08225,10.7842432 61.08225,8.66775001 C61.08225,8.27133786 61.0207442,7.87732573 60.8999274,7.49977323 Z" id="Path-6" fill="#42B263"></path>
                <path d="M99.5,19 C123.308351,9.57410006 173.510157,19.0000489 213,19 C224.367712,18.9999859 222.941822,38.9999877 213,39 C181.102325,39.0000395 149.380636,22.0232432 106.5,39 C93.1702712,44.2773369 89.3387137,23.0229274 99.5,19 Z" id="Path-7" fill="#C9A77B"></path>
                <path d="M118.496833,38.0607501 C119.59406,33.7937557 120.501808,30.9745975 122.996833,29.5607501 C124.251808,28.8495975 124.303503,34.7279704 125.996833,33.8107501 C130.303503,31.4779704 130.932776,24.389384 134.996833,23.0607501 C137.432776,22.264384 135.150227,29.5607501 138.996833,29.5607501 C143.150227,29.5607501 148.080646,22.8177345 150.996833,23.0607501 C154.080646,23.3177345 146.985048,29.701082 150.996833,30.5607501 C153.985048,31.201082 161.119836,26.0607501 164.996833,26.0607501 C168.119836,26.0607501 161.124984,29.5569373 164.996833,30.5607501 C167.874984,31.3069373 176.590612,28.5017388 178.496833,29.5607501 C183.340612,32.2517388 174.248259,38.0607501 178.496833,38.0607501 C183.248259,38.0607501 190.277429,31.0292205 196.496833,29.5607501 C199.277429,28.9042205 193.772515,33.8107501 196.496833,33.8107501 C199.772515,33.8107501 201.385626,31.1944056 208.496833,29.5607501 C210.635626,29.0694056 214.123462,28.9152153 214.996833,29.5607501 C219.873462,33.1652153 221.835483,33.9591462 219.996833,38.0607501 C218.585483,41.2091462 214.349764,44.0607501 208.496833,44.0607501 C202.599764,44.0607501 200.188663,37.4278649 196.496833,38.0607501 C191.438663,38.9278649 195.124561,46.1762369 190.996833,47.0607501 C188.124561,47.6762369 189.688197,41.8905229 182.496833,41.0607501 C176.688197,40.3905229 168.166086,45.1473512 164.996833,44.0607501 C159.416086,42.1473512 169.674768,37.0655794 164.996833,35.0607501 C162.674768,34.0655794 153.891253,36.0760045 150.996833,38.0607501 C145.141253,42.0760045 151.025992,46.1784602 147.496833,47.0607501 C145.025992,47.6784602 142.185732,41.0607501 138.996833,41.0607501 C135.935732,41.0607501 136.899045,47.6614486 134.996833,47.0607501 C132.149045,46.1614486 133.560426,38.0607501 129.496833,38.0607501 C125.310426,38.0607501 121.301973,47.0607501 118.496833,47.0607501 C115.801973,47.0607501 117.34406,42.5437557 118.496833,38.0607501 Z" id="Path-8" fill="#42B263"></path>
            </g>
            <path d="M19.9066412,23.8644529 L13.5,26 L13.5,19.5 L19.7210522,21.2774435 C21.2507203,20.0287279 25.0559388,19.1173841 29.601943,19.0105147 C28.79136,16.8137215 28.0564902,14.6826929 28.5,13.5 C29.387602,11.1330613 33.0149058,11.0568072 35,13.5 C35.9844022,14.711572 35.0393216,16.6797328 34.4095807,19.2074514 C38.8362778,19.6944179 42,20.9847636 42,22.5 C42,24.0171051 38.8284695,25.3087644 34.393197,25.7943466 C35.1198669,28.3352752 36.3436702,29.8294558 35,32 C33.7066166,34.0893116 29.2727813,34.2913631 29,32 C28.7792171,30.1454237 30.0156996,28.2583425 30.5987506,25.9998736 C30.5658665,25.9999578 30.5329494,26 30.5,26 C25.7391925,26 21.654067,25.1195405 19.9066412,23.8644529 Z" id="Path-11" fill="#F5A623" transform="translate(27.750000, 22.669857) rotate(18.000000) translate(-27.750000, -22.669857) "></path>
            <path d="M106.100278,76.0347633 L99.6936365,78.1703103 L99.6936365,71.6703103 L105.914689,73.4477538 C107.444357,72.1990382 111.249575,71.2876945 115.79558,71.180825 C114.984997,68.9840318 114.250127,66.8530032 114.693637,65.6703103 C115.581239,63.3033716 119.208542,63.2271175 121.193637,65.6703103 C122.178039,66.8818823 121.232958,68.8500431 120.603217,71.3777617 C125.029914,71.8647283 128.193637,73.1550739 128.193637,74.6703103 C128.193637,76.1874154 125.022106,77.4790747 120.586833,77.9646569 C121.313503,80.5055855 122.537307,81.9997661 121.193637,84.1703103 C119.900253,86.2596219 115.466418,86.4616734 115.193637,84.1703103 C114.972854,82.315734 116.209336,80.4286528 116.792387,78.170184 C116.759503,78.1702681 116.726586,78.1703103 116.693637,78.1703103 C111.932829,78.1703103 107.847704,77.2898508 106.100278,76.0347633 Z" id="Path-11" fill="#F5A623" transform="translate(113.943637, 74.840167) rotate(171.000000) translate(-113.943637, -74.840167) "></path>
            <path d="M209.10688,52.2607622 L202.700239,54.3963093 L202.700239,47.8963093 L208.921291,49.6737528 C210.45096,48.4250372 214.256178,47.5136934 218.802182,47.4068239 C217.991599,45.2100308 217.256729,43.0790022 217.700239,41.8963093 C218.587841,39.5293706 222.215145,39.4531165 224.200239,41.8963093 C225.184641,43.1078812 224.239561,45.0760421 223.60982,47.6037607 C228.036517,48.0907272 231.200239,49.3810729 231.200239,50.8963093 C231.200239,52.4134144 228.028709,53.7050737 223.593436,54.1906559 C224.320106,56.7315845 225.54391,58.2257651 224.200239,60.3963093 C222.906856,62.4856209 218.473021,62.6876724 218.200239,60.3963093 C217.979456,58.541733 219.215939,56.6546518 219.79899,54.3961829 C219.766106,54.3962671 219.733189,54.3963093 219.700239,54.3963093 C214.939432,54.3963093 210.854306,53.5158498 209.10688,52.2607622 Z" id="Path-11" fill="#F5A623" transform="translate(216.950239, 51.066166) rotate(214.000000) translate(-216.950239, -51.066166) "></path>
            <path d="M155,81.5 C152.174699,71.6857966 157.600025,57.3285642 167.5,54.5 C176.850025,51.8285642 182,64.5 193.5,70.5 C201.088996,74.459476 187.159081,84.5974053 177,87.5 C167.909081,90.0974053 156.924699,88.1857966 155,81.5 Z" id="Path-9" fill="#D2D2D2"></path>
        </g>
        <rect id="Rectangle-2" fill="#00CBA0" opacity="0.156529018" x="4" y="4" width="241" height="92"></rect>
    </g>
</svg>