<?xml version="1.0" encoding="UTF-8"?>
<svg width="350px" height="350px" viewBox="0 0 350 350" version="1.1" xmlns="http://www.w3.org/2000/svg" xmlns:xlink="http://www.w3.org/1999/xlink">
    <!-- Generator: Sketch 50.2 (55047) - http://www.bohemiancoding.com/sketch -->
    <title>Character/Owl</title>
    <desc>Created with Sketch.</desc>
    <defs></defs>
    <g id="Character/Owl" stroke="none" stroke-width="1" fill="none" fill-rule="evenodd">
        <g id="Character">
            <g id="Back/Features/None" transform="translate(-1.000000, 0.000000)"></g>
            <g id="Onesie/Hood/Back/SmallV" transform="translate(91.000000, 105.000000)" fill-rule="evenodd">
                <g id="Onesie/Hood/Back/Small/Fabric/Black" transform="translate(11.000000, 0.000000)" fill="#474747">
                    <path d="M75,145.844483 C-25,73.1823924 -25,-20.1555169 75,3.84448315 C178,-12.1555169 163,73.1823924 75,145.844483 Z" id="Mouth"></path>
                </g>
                <path d="M86,144 C111,109 223.879816,33.0349601 98,8 C178,57 114,89 86,144 Z" id="Path" fill="#000000" opacity="0.20390625" style="mix-blend-mode: multiply;"></path>
            </g>
            <g id="Torso" transform="translate(48.000000, 216.000000)">
                <g id="Onesie/Body/Med">
                    <g id="Onesie/Body/Med/Fabric/Brown" transform="translate(22.000000, 1.000000)" fill="#7F6D56" fill-rule="evenodd">
                        <path d="M0,132.016059 C0,62 12,11 37,5.01605943 C45.0518978,3.08877631 62.1469204,-0.128150709 65,3.01605943 C114,57.0160594 109,39.0160594 147,2.01605943 C149.644155,-0.558512157 165.346629,1.68852482 171,3.01605943 C205,11 209,66.4661928 212,132.016059 L0,132.016059 Z" id="Onesie"></path>
                    </g>
                    <g id="Onsie/Body/Pattern/None" transform="translate(-49.000000, -217.000000)"></g>
                    <path d="M71.0117356,35.2621037 C55.7379399,62.2495637 57.6600544,98.9896808 61.6962691,133.40715 L54,133.40715 C54,84.3346963 59.6705785,51.619681 71.0117356,35.2621037 Z M194.389401,133.40715 C191.789381,101.242071 195.232017,73.4993667 184.567213,30.2617308 C192.548012,43.7707437 198.025608,78.15255 201,133.40715 L194.389401,133.40715 Z" id="Path" fill="#000000" fill-rule="evenodd" opacity="0.20390625" style="mix-blend-mode: multiply;"></path>
                    <path d="M22.0000419,132.789626 C22.0258948,62.8900635 34.026958,11.9935474 59,6.01605943 C63.4949228,4.9401654 70.808011,3.46237159 76.888384,2.91367696 C77.5883248,2.93551087 78.2922318,2.96429689 79,3 C47.4046451,10.9100363 34.4485105,46.1482292 23.3770524,133.015993 L22.0694917,133.016059 C22.0463031,132.940546 22.0231532,132.865068 22.0000419,132.789626 Z" id="Onesie-Copy" fill="#000000" fill-rule="evenodd" opacity="0.20390625" style="mix-blend-mode: multiply;"></path>
                </g>
                <g id="Onsie/Body/Pattern/Own-Belly-Feathers" transform="translate(-50.000000, -217.000000)" fill-rule="evenodd">
                    <path d="M174,229 C213.349453,229 235,232.676584 235,255 C235,294 202,346 181,346 C148.311683,346 118,291.167063 118,255 C118,239 141.202144,229 174,229 Z" id="Path-2" fill="#C9A77B"></path>
                    <g id="Group" stroke-width="1" transform="translate(176.000000, 286.000000) rotate(-180.000000) translate(-176.000000, -286.000000) translate(131.000000, 272.000000)" fill="#474747">
                        <path d="M35.9091635,10.4815398 C29.7010824,4.22726687 25.8899044,2.95935117 19.0819929,10.4815398 C17.9650714,11.7156474 16.4337409,10.5209833 17.2123073,9.24841749 C20.017305,4.66365221 23.1329784,0 27.4955782,0 C31.858178,0 34.6873336,4.59958557 37.7788491,9.24841749 C38.582512,10.4569166 37.0197331,11.6003728 35.9091635,10.4815398 Z" id="Path-26"></path>
                        <path d="M69.9091635,10.4815398 C63.7010824,4.22726687 59.8899044,2.95935117 53.0819929,10.4815398 C51.9650714,11.7156474 50.4337409,10.5209833 51.2123073,9.24841749 C54.017305,4.66365221 57.1329784,0 61.4955782,0 C65.858178,0 68.6873336,4.59958557 71.7788491,9.24841749 C72.582512,10.4569166 71.0197331,11.6003728 69.9091635,10.4815398 Z" id="Path-26"></path>
                        <path d="M52.9091635,27.4815398 C46.7010824,21.2272669 42.8899044,19.9593512 36.0819929,27.4815398 C34.9650714,28.7156474 33.4337409,27.5209833 34.2123073,26.2484175 C37.017305,21.6636522 40.1329784,17 44.4955782,17 C48.858178,17 51.6873336,21.5995856 54.7788491,26.2484175 C55.582512,27.4569166 54.0197331,28.6003728 52.9091635,27.4815398 Z" id="Path-26"></path>
                        <path d="M87.9091635,27.4815398 C81.7010824,21.2272669 77.8899044,19.9593512 71.0819929,27.4815398 C69.9650714,28.7156474 68.4337409,27.5209833 69.2123073,26.2484175 C72.017305,21.6636522 75.1329784,17 79.4955782,17 C83.858178,17 86.6873336,21.5995856 89.7788491,26.2484175 C90.582512,27.4569166 89.0197331,28.6003728 87.9091635,27.4815398 Z" id="Path-26"></path>
                        <path d="M18.9091635,27.4815398 C12.7010824,21.2272669 8.88990435,19.9593512 2.08199294,27.4815398 C0.965071363,28.7156474 -0.566259059,27.5209833 0.212307329,26.2484175 C3.01730503,21.6636522 6.13297843,17 10.4955782,17 C14.858178,17 17.6873336,21.5995856 20.7788491,26.2484175 C21.582512,27.4569166 20.0197331,28.6003728 18.9091635,27.4815398 Z" id="Path-26"></path>
                    </g>
                </g>
            </g>
            <g id="Human" transform="translate(109.000000, 80.000000)" fill-rule="evenodd">
                <g stroke-width="1">
                    <g id="Human/Body" transform="translate(6.000000, 0.000000)">
                        <path d="M36,105 C41.3333333,126.333333 40.6666667,138.333333 34,141 C31.2358454,142.105662 23.9417115,144.352771 19,145 C36,166 51,174 64,174 C75,174 84,168 102,145 C97.8118305,144.429236 91.0690633,141.827625 89,141 C79,137 83.7342215,121.6902 84,105 L36,105 Z" id="Path-3" fill="#F8E5D4"></path>
                        <path d="M37,107 C38.3333333,116.333333 46.1666667,125.666667 60.5,135 C73.5,127.666667 81.3333333,119 84,109 C64,100 40,97 37,107 Z" id="Path-3-Copy" fill="#000000" opacity="0.20390625" style="mix-blend-mode: multiply;"></path>
                        <g id="Human/Body/Head/SmallV" transform="translate(5.000000, 0.000000)" fill="#F8E5D4">
                            <path d="M55.925927,123 C124.218348,95.4851439 98.3601904,0 55.925927,0 C13.4916637,8.29036926e-15 -9.57043599,97 55.925927,123 Z" id="Skin"></path>
                        </g>
                    </g>
                    <g id="Group" transform="translate(24.000000, 130.000000)">
                        <path d="M23,5 L42,9 L45,9 L64,4 C70.1371604,10.2252967 77.6257221,12.6571562 86,14.026226 C71.7168267,31.7273793 58,44 45,44 C30,44 17.0070543,33 0,14.026226 C10.8601709,13.0331795 19.1775762,10.8204389 23,5 Z" id="Path-6" fill="#BFCECE"></path>
                        <g id="Group-2-Copy" transform="translate(12.000000, 3.000000)" fill="#545454" fill-opacity="0.152202219">
                            <polygon id="Path-4" points="30 9 22 19 0 11 5 1"></polygon>
                            <polygon id="Path-5" points="31 9 37 19 61 10 57 0"></polygon>
                        </g>
                        <g id="Group-2" transform="translate(12.000000, 0.000000)" fill="#D8D8D8">
                            <polygon id="Path-4" points="30 9 22 19 0 11 5 1"></polygon>
                            <polygon id="Path-5" points="31 9 37 19 61 10 57 0"></polygon>
                        </g>
                        <circle id="Oval-3" fill="#545454" cx="42" cy="20" r="2"></circle>
                        <circle id="Oval-3-Copy" fill="#545454" cx="43" cy="38" r="2"></circle>
                    </g>
                </g>
                <g id="Human/Face" transform="translate(42.000000, 50.000000)">
                    <ellipse id="Oval" fill="#232323" cx="4" cy="7" rx="4" ry="7"></ellipse>
                    <ellipse id="Oval-Copy" fill="#232323" cx="43" cy="7" rx="4" ry="7"></ellipse>
                    <path d="M19,37 C22,40 24.75,41.5 31,37 C27,38.3333333 23,38.3333333 19,37 Z" id="Path-13" fill="#000000"></path>
                    <path d="M6,44 C17,54 28,55 40,44 C33.7248433,46.4599668 29.986263,44.1396548 23,47.9397296 C20.5341319,43.4914418 9.35349092,47.5788994 6,44 Z" id="Path-14" fill="#C05959"></path>
                </g>
            </g>
            <g id="Onesie/Hood/Front/SmallV" transform="translate(87.000000, 72.000000)" fill-rule="evenodd">
                <g id="Onesie/Hood/Front/SmallV/Fabric/Brown" transform="translate(10.000000, 0.000000)" fill="#7F6D56">
                    <path d="M29,143 C1.5722721,98.0185262 -16,65 22,19 C33.1786731,5.46792205 58.19491,1.93419551 83,1 C107.224154,0.0876833909 120,5 134,19 C169.638327,54.6383273 158.802939,89.9058854 134,134 C125,150 102,183 83,183 C64,183 41.206094,163.017994 29,143 Z M82,179 C164.350778,96 164.350778,52.3977798 79.4978767,51 C-17.8660676,49.3961261 7,114.986582 82,179 Z" id="Hood-Big"></path>
                </g>
                <g id="Onesie/Hood/Front/SmallV/Shadow/Med" transform="translate(10.000000, 11.000000)" fill="#000000" opacity="0.20390625">
                    <path d="M47.6095584,154.544934 C47.248514,154.213112 46.8893636,153.878212 46.5322169,153.540387 C44.0359874,151.039252 41.6544671,148.555716 39.3839548,146.090675 C35.4477647,141.578039 31.920762,136.79005 29,132 C1.5722721,87.0185262 -16,54 22,8 C22.964059,6.8329812 24.0310348,5.74032509 25.1919164,4.71728595 C27.3125886,3.02567061 29.4817906,1.51707207 31.6666674,0.199466168 C31.7650248,0.144642085 31.863754,0.0901001045 31.9628459,0.0358424078 C7.64250244,23.5071792 -0.232856736,50.0024019 10.7440584,79.9641604 C5.58135281,51.9880535 29.3333333,38 82,38 C199.998753,38 127,134 82,169 C62,157.666667 40.8535804,134.790753 18.5607411,100.372259 C23.737368,119.326171 33.0107613,137.465193 47.6095584,154.544934 Z M82,168 C164.350778,85 164.350778,41.3977798 79.4978767,40 C-17.8660676,38.3961261 7,103.986582 82,168 Z" id="Shadow" style="mix-blend-mode: multiply;"></path>
                </g>
            </g>
            <g id="Onesie/Hood/Features/Owl" transform="translate(53.000000, 29.000000)" fill-rule="evenodd">
                <path d="M122,53 C217,29 151,133 122,95 C94,133 26,28 122,53 Z" id="Path-14" fill="#C9A77B"></path>
                <g id="Onesie/Eye/Colored/White" transform="translate(126.000000, 50.000000)">
                    <circle id="Oval" fill="#FFFFFF" cx="19" cy="19" r="19"></circle>
                    <circle id="Oval-2" fill="#000000" cx="16" cy="22" r="13"></circle>
                    <circle id="Oval-2" fill="#FFFFFF" cx="11" cy="17" r="5"></circle>
                </g>
                <g id="Onesie/Eye/Colored/White" transform="translate(81.000000, 50.000000)">
                    <circle id="Oval" fill="#FFFFFF" cx="19" cy="19" r="19"></circle>
                    <circle id="Oval-2" fill="#000000" cx="16" cy="22" r="13"></circle>
                    <circle id="Oval-2" fill="#FFFFFF" cx="11" cy="17" r="5"></circle>
                </g>
                <path d="M122,68 C100,60 108,44 63,35 C87,35 106.666667,38 122,44 C134.666667,38 154.333333,35 181,35 C131,44 146,59 122,68 Z" id="Path-14" fill="#474747"></path>
                <path d="M122.498697,81 C139,81 126,107 122,107 C117.118711,107 106,81 122.498697,81 Z" id="Path-15" fill="#FFDD00"></path>
            </g>
        </g>
    </g>
</svg>