<?xml version="1.0" encoding="UTF-8"?>
<svg width="350px" height="350px" viewBox="0 0 350 350" version="1.1" xmlns="http://www.w3.org/2000/svg" xmlns:xlink="http://www.w3.org/1999/xlink">
    <!-- Generator: Sketch 50.2 (55047) - http://www.bohemiancoding.com/sketch -->
    <title>Character/Totoro</title>
    <desc>Created with Sketch.</desc>
    <defs></defs>
    <g id="Character/Totoro" stroke="none" stroke-width="1" fill="none" fill-rule="evenodd">
        <g id="Character">
            <g id="Onesie/Hood/Back/SmallV" transform="translate(91.000000, 105.000000)" fill-rule="evenodd">
                <g id="Onesie/Hood/Back/Small/Fabric/Black" transform="translate(11.000000, 0.000000)" fill="#474747">
                    <path d="M75,145.844483 C-25,73.1823924 -25,-20.1555169 75,3.84448315 C178,-12.1555169 163,73.1823924 75,145.844483 Z" id="Mouth"></path>
                </g>
                <path d="M86,144 C111,109 223.879816,33.0349601 98,8 C178,57 114,89 86,144 Z" id="Path" fill="#000000" opacity="0.20390625" style="mix-blend-mode: multiply;"></path>
            </g>
            <g id="Torso" transform="translate(48.000000, 216.000000)">
                <g id="Onesie/Body/Large">
                    <g id="Onesie/Body/Large/Fabric/Grey" transform="translate(0.000000, 2.000000)" fill="#D2D2D2" fill-rule="evenodd">
                        <path d="M0,131.016059 C11.1026391,65.2441196 10.1026391,23.0160594 59,4.01605943 C67,2.01605943 84.1469204,-1.12815071 87,2.01605943 C136,56.0160594 131,38.0160594 169,1.01605943 C171.644155,-1.55851216 187,1.51117281 193,2.01605943 C245,17.0160594 244,89.0160594 253,131.016059 L0,131.016059 Z" id="Onesie"></path>
                    </g>
                    <g id="Onsie/Body/Pattern/None" transform="translate(-50.000000, -217.000000)"></g>
                    <path d="M46.2593898,56.889046 C41.222168,80.3619616 42.852671,107.666375 45.6744097,132.869424 L39.514126,132.869424 C36.1471434,100.355819 38.3955646,75.0290265 46.2593898,56.889046 Z M209.486031,132.869424 C207.863121,107.067426 210.541805,83.6096244 201.852683,53.7748193 C208.552386,71.7183547 212.646801,98.1805554 214.514126,132.869424 L209.486031,132.869424 Z" id="Path" fill="#000000" fill-rule="evenodd" opacity="0.20390625" style="mix-blend-mode: multiply;"></path>
                    <path d="M74.4714339,3.14047755 C38.4920109,12.8949625 24.9372895,56.0267345 1.81731302,121.837938 C11.153921,62.4361908 12.9312783,23.9169378 59,6.01605943 C62.8919532,5.04307114 68.9487679,3.79927513 74.4714339,3.14047755 Z" id="Onesie-Copy" fill="#000000" fill-rule="evenodd" opacity="0.20390625" style="mix-blend-mode: multiply;"></path>
                </g>
                <g id="Onesie/Belly/BigM" transform="translate(40.000000, 26.000000)" fill-rule="evenodd" stroke-width="1">
                    <g id="Belly">
                        <g id="Onesie/Belly/BigM/Fabric/White" fill="#FFFFFF">
                            <path d="M2,107 C-4.17865508,47.3351982 8.5524993,11.8719057 40.1934631,0.610122677 L40.1934622,0.610120157 C41.3668846,0.192470811 42.653941,0.227819838 43.8026702,0.709247114 C44.8474643,1.14711564 45.6361582,1.53666381 46.1687519,1.87789163 C78.349632,22.4958805 108.885517,22.0308272 137.776407,0.48273163 L137.776407,0.482731444 C137.932064,0.366635535 138.086752,0.249246232 138.240456,0.130575729 C161.378187,3.38507408 173.378187,39.7184074 177,107 L2,107 Z" id="Path"></path>
                        </g>
                        <g id="Group-4" transform="translate(83.000000, 36.000000)">
                            <circle id="Oval-2" fill="#D48106" cx="6" cy="6" r="6"></circle>
                            <path d="M7.32615505,0.147053436 C10.001745,0.750704801 12,3.14199367 12,6 C12,8.5358434 10.4268527,10.7042586 8.20324472,11.5825588 C10.6669965,6.38136644 10.0477395,2.24263757 7.32615505,0.147053436 Z" id="Oval-2-Copy-2" fill-opacity="0.469627491" fill="#FFFFFF"></path>
                        </g>
                        <g id="Group-4-Copy" transform="translate(83.000000, 79.000000)">
                            <circle id="Oval-2" fill="#D48106" cx="6" cy="6" r="6"></circle>
                            <path d="M8,-2.28475433e-11 C10.67559,0.603651365 12.6738449,2.99494023 12.6738449,5.85294656 C12.6738449,8.38878997 11.1006976,10.5572051 8.87708967,11.4355053 C11.3408414,6.23431301 10.7215844,2.09558413 8,-1.95898853e-12 Z" id="Oval-2-Copy-2" fill-opacity="0.469627491" fill="#FFFFFF"></path>
                        </g>
                    </g>
                </g>
                <g id="Onsie/Body/Pattern/Totoro-Belly-Marks" transform="translate(-50.000000, -217.000000)" fill="#D2D2D2" fill-rule="evenodd" stroke-width="1">
                    <g id="Group" transform="translate(103.000000, 265.000000)">
                        <path d="M57.3406573,17 C47.3794943,6.85620033 41.2642768,4.79976899 30.3406573,17 C28.5485032,19.0015979 26.0914103,17.0639733 27.3406573,15 C31.8414103,7.56397332 36.8406573,0 43.8406573,0 C50.8406573,0 55.3801728,7.46006369 60.3406573,15 C61.6301728,16.9600637 59.1226193,18.8146341 57.3406573,17 Z" id="Path-26"></path>
                        <path d="M114.340657,17 C104.379494,6.85620033 98.2642768,4.79976899 87.3406573,17 C85.5485032,19.0015979 83.0914103,17.0639733 84.3406573,15 C88.8414103,7.56397332 93.8406573,0 100.840657,0 C107.840657,0 112.380173,7.46006369 117.340657,15 C118.630173,16.9600637 116.122619,18.8146341 114.340657,17 Z" id="Path-26"></path>
                        <path d="M86.3406573,45 C76.3794943,34.8562003 70.2642768,32.799769 59.3406573,45 C57.5485032,47.0015979 55.0914103,45.0639733 56.3406573,43 C60.8414103,35.5639733 65.8406573,28 72.8406573,28 C79.8406573,28 84.3801728,35.4600637 89.3406573,43 C90.6301728,44.9600637 88.1226193,46.8146341 86.3406573,45 Z" id="Path-26"></path>
                        <path d="M143.340657,45 C133.379494,34.8562003 127.264277,32.799769 116.340657,45 C114.548503,47.0015979 112.09141,45.0639733 113.340657,43 C117.84141,35.5639733 122.840657,28 129.840657,28 C136.840657,28 141.380173,35.4600637 146.340657,43 C147.630173,44.9600637 145.122619,46.8146341 143.340657,45 Z" id="Path-26"></path>
                        <path d="M30.3406573,45 C20.3794943,34.8562003 14.2642768,32.799769 3.34065727,45 C1.54850317,47.0015979 -0.908589746,45.0639733 0.340657265,43 C4.84141025,35.5639733 9.84065727,28 16.8406573,28 C23.8406573,28 28.3801728,35.4600637 33.3406573,43 C34.6301728,44.9600637 32.1226193,46.8146341 30.3406573,45 Z" id="Path-26"></path>
                    </g>
                </g>
            </g>
            <g id="Human" transform="translate(109.000000, 80.000000)" fill-rule="evenodd">
                <g stroke-width="1">
                    <g id="Human/Body" transform="translate(6.000000, 0.000000)">
                        <path d="M36,105 C41.3333333,126.333333 40.6666667,138.333333 34,141 C31.2358454,142.105662 23.9417115,144.352771 19,145 C36,166 51,174 64,174 C75,174 84,168 102,145 C97.8118305,144.429236 91.0690633,141.827625 89,141 C79,137 83.7342215,121.6902 84,105 L36,105 Z" id="Path-3" fill="#F8E5D4"></path>
                        <path d="M37,107 C38.3333333,116.333333 46.1666667,125.666667 60.5,135 C73.5,127.666667 81.3333333,119 84,109 C64,100 40,97 37,107 Z" id="Path-3-Copy" fill="#000000" opacity="0.20390625" style="mix-blend-mode: multiply;"></path>
                        <g id="Human/Body/Head/SmallV" transform="translate(5.000000, 0.000000)" fill="#F8E5D4">
                            <path d="M55.925927,123 C124.218348,95.4851439 98.3601904,0 55.925927,0 C13.4916637,8.29036926e-15 -9.57043599,97 55.925927,123 Z" id="Skin"></path>
                        </g>
                    </g>
                    <g id="Group" transform="translate(24.000000, 130.000000)">
                        <path d="M23,5 L42,9 L45,9 L64,4 C70.1371604,10.2252967 77.6257221,12.6571562 86,14.026226 C71.7168267,31.7273793 58,44 45,44 C30,44 17.0070543,33 0,14.026226 C10.8601709,13.0331795 19.1775762,10.8204389 23,5 Z" id="Path-6" fill="#BFCECE"></path>
                        <g id="Group-2-Copy" transform="translate(12.000000, 3.000000)" fill="#545454" fill-opacity="0.152202219">
                            <polygon id="Path-4" points="30 9 22 19 0 11 5 1"></polygon>
                            <polygon id="Path-5" points="31 9 37 19 61 10 57 0"></polygon>
                        </g>
                        <g id="Group-2" transform="translate(12.000000, 0.000000)" fill="#D8D8D8">
                            <polygon id="Path-4" points="30 9 22 19 0 11 5 1"></polygon>
                            <polygon id="Path-5" points="31 9 37 19 61 10 57 0"></polygon>
                        </g>
                        <circle id="Oval-3" fill="#545454" cx="42" cy="20" r="2"></circle>
                        <circle id="Oval-3-Copy" fill="#545454" cx="43" cy="38" r="2"></circle>
                    </g>
                </g>
                <g id="Human/Face" transform="translate(42.000000, 50.000000)">
                    <ellipse id="Oval" fill="#232323" cx="4" cy="7" rx="4" ry="7"></ellipse>
                    <ellipse id="Oval-Copy" fill="#232323" cx="43" cy="7" rx="4" ry="7"></ellipse>
                    <path d="M19,37 C22,40 24.75,41.5 31,37 C27,38.3333333 23,38.3333333 19,37 Z" id="Path-13" fill="#000000"></path>
                    <path d="M6,44 C17,54 28,55 40,44 C33.7248433,46.4599668 29.986263,44.1396548 23,47.9397296 C20.5341319,43.4914418 9.35349092,47.5788994 6,44 Z" id="Path-14" fill="#C05959"></path>
                </g>
            </g>
            <g id="Onesie/Hood/Front/SmallV" transform="translate(87.000000, 72.000000)" fill-rule="evenodd">
                <g id="Onesie/Hood/Front/SmallV/Fabric/Grey" transform="translate(10.000000, 0.000000)" fill="#D2D2D2">
                    <path d="M29,143 C1.5722721,98.0185262 -16,65 22,19 C33.1786731,5.46792205 58.19491,1.93419551 83,1 C107.224154,0.0876833909 120,5 134,19 C169.638327,54.6383273 158.802939,89.9058854 134,134 C125,150 102,183 83,183 C64,183 41.206094,163.017994 29,143 Z M82,179 C164.350778,96 164.350778,52.3977798 79.4978767,51 C-17.8660676,49.3961261 7,114.986582 82,179 Z" id="Hood-Big"></path>
                </g>
                <g id="Onesie/Hood/Front/SmallV/Shadow/Med" transform="translate(10.000000, 11.000000)" fill="#000000" opacity="0.20390625">
                    <path d="M47.6095584,154.544934 C47.248514,154.213112 46.8893636,153.878212 46.5322169,153.540387 C44.0359874,151.039252 41.6544671,148.555716 39.3839548,146.090675 C35.4477647,141.578039 31.920762,136.79005 29,132 C1.5722721,87.0185262 -16,54 22,8 C22.964059,6.8329812 24.0310348,5.74032509 25.1919164,4.71728595 C27.3125886,3.02567061 29.4817906,1.51707207 31.6666674,0.199466168 C31.7650248,0.144642085 31.863754,0.0901001045 31.9628459,0.0358424078 C7.64250244,23.5071792 -0.232856736,50.0024019 10.7440584,79.9641604 C5.58135281,51.9880535 29.3333333,38 82,38 C199.998753,38 127,134 82,169 C62,157.666667 40.8535804,134.790753 18.5607411,100.372259 C23.737368,119.326171 33.0107613,137.465193 47.6095584,154.544934 Z M82,168 C164.350778,85 164.350778,41.3977798 79.4978767,40 C-17.8660676,38.3961261 7,103.986582 82,168 Z" id="Shadow" style="mix-blend-mode: multiply;"></path>
                </g>
            </g>
            <g id="Onesie/Hood/Features/Totoro" transform="translate(53.000000, 29.000000)" fill-rule="evenodd">
                <g id="Onesie/Ear/Totoro" transform="translate(-34.000000, -33.000000)" fill="#D2D2D2">
                    <path d="M104,74 C102,35 105.875631,31 110,31 C113,31 120.466018,41 132,69 C134.92576,76.1026009 129.301233,72.795069 128,78 C127,82 129.74823,90.2483237 128,92 C124.451475,95.5555204 121.098954,99.8242157 116,96 C112,93 114,83 112,81 C110.669759,79.6697595 104.459158,82.9535788 104,74 Z" id="Path-16"></path>
                </g>
                <g id="Onesie/Ear/Totoro" transform="translate(204.000000, 42.000000) scale(-1, 1) translate(-204.000000, -42.000000) translate(129.000000, -33.000000)" fill="#D2D2D2">
                    <path d="M104,74 C102,35 105.875631,31 110,31 C113,31 120.466018,41 132,69 C134.92576,76.1026009 129.301233,72.795069 128,78 C127,82 129.74823,90.2483237 128,92 C124.451475,95.5555204 121.098954,99.8242157 116,96 C112,93 114,83 112,81 C110.669759,79.6697595 104.459158,82.9535788 104,74 Z" id="Path-16"></path>
                </g>
                <path d="M79,75 C108.754259,92.4403704 139.581858,94.8539931 172,75 L79,75 Z" id="Path-25" fill="#FFFFFF"></path>
                <g id="Group" stroke-width="1" transform="translate(83.000000, 55.000000)">
                    <circle id="Oval-3" fill="#FFFFFF" cx="7" cy="7" r="7"></circle>
                    <circle id="Oval" fill="#474747" cx="7" cy="6" r="3"></circle>
                </g>
                <g id="Group-Copy" stroke-width="1" transform="translate(149.000000, 55.000000)">
                    <circle id="Oval-3" fill="#FFFFFF" cx="7" cy="7" r="7"></circle>
                    <circle id="Oval" fill="#474747" cx="7" cy="6" r="3"></circle>
                </g>
                <path d="M112,64 C112,60 134,61 134,64 C134,65.748687 128,65.5691741 123,67 C117,65.5691741 112,65.5691741 112,64 Z" id="Path-4" fill="#474747"></path>
            </g>
        </g>
    </g>
</svg>